057201202100017590034A0002
053201202100018090034A0011
057201202100018170034A0002
015201202100018370042A0002
053201202100018470034A0011
054201202100020320034A0011
011201202100020350042A0011
051201202100022120034A0011
025201202100022290034A0002
053201202100022540034A0011
057201202100038310034A0002
015201202100046410042A0002
053201202100047570034A0011
053201202100103430034B0015
057201202100103560034A0002
053201202100104120034A0011
054201202100105050034A0011
051201202100116440034A0011
025201202100117030034A0002
021201202100125410034A0011
054201202100128250034A0011
051201202100132440034A0011
025201202100133010034A0002
021201202100141430034A0011
025201202100142100034A0002
053201202100144080034A0011
025201202100234250034A0002
053201202100235290034A0011
057201202100236240034A0002
053201202100521150034A0011
057201202100521490034A0002
021201202100523180034A0011
025201202100528580034A0002
021201202100534090034A0011
025201202100541030034A0002
021201202100559520034A0011
025201202100608470034A0002
021201202100629220034A0011
025201202100631280034A0002
025201202100642580111B0006
021201202100643010111A0011
021201202100649500018A0011
021201202100655160034A0011
025201202100656150034A0002
025201202100701170018A0002
021201202100701550014A0011
011201202100702030018A0011
021201202100706480002A0011
011201202100712160001A0011
021201202100713400034A0011
062201202100714530034A0011
036201202100715210034A0002
032201202100715430034A0011
021201202100718000089B0015
054201202100718030034A0011
051201202100718480034A0011
032201202100721050192A0011
025201202100721060034A0002
032201202100727340093A0011
021201202100728170026A0011
021201202100729260043A0011
053201202100730480034A0011
015201202100732160018A0002
011201202100734440203A0011
062201202100734540034A0011
054201202100736150034A0011
051201202100737380034A0011
053201202100740570333A0011
031201202100741150006A0011
032201202100741410025A0011
057201202100742040034A0002
051201202100744590018A0001
011201202100745160041A0011
035201202100746550006A0002
032201202100747070006A0011
036201202100747290006A0002
057201202100747390333A0002
057201202100747460018B0006
031201202100747460006A0011
053201202100747540034A0011
057201202100747590034A0002
052201202100748260006A0011
057201202100748430006A0002
031201202100749580105A0011
062201202100751230006A0001
032201202100751490038A0011
021201202100752170034A0011
036201202100752330006B0006
051201202100753400093A0011
025201202100753410034A0002
031201202100754530006A0011
031201202100756030034A0011
035201202100756230034A0002
011201202100757130015A0011
015201202100757150041A0002
053201202100757240018A0011
053201202100757260333A0011
011201202100757590041A0011
057201202100758330018A0002
015201202100801070015A0002
035201202100802340006A0002
036201202100805590025A0002
053201202100806160018A0011
011201202100806460017A0011
011201202100806500015A0011
021201202100806580176B0015
021201202100807100034A0011
025201202100807130176A0002
025201202100807180034A0002
057201202100807220018A0002
036201202100808460192A0002
015201202100809490015A0002
011201202100810460023A0011
053201202100810570080A0011
031201202100815370006A0011
011201202100818310076A0011
053201202100818420060A0011
011201202100819070015A0011
011201202100819100028A0011
035201202100819250006A0002
021201202100821230102A0011
035201202100822170006B0006
032201202100822280025A0011
062201202100822440093A0011
061201202100825190333A0011
052201202100826560333A0011
032201202100827180188A0011
051201202100827220076A0011
021201202100827560034A0011
021201202100830140012A0011
05120120210083027XXXXC0007
015201202100830500041A0002
011201202100830570302A0011
011201202100831100041A0011
025201202100831270034A0002
015201202100831500041A0002
021201202100833300051A0011
031201202100833340006A0011
035201202100834210006A0002
057201202100835000060A0002
057201202100835060080A0002
05120120210083524XXXXC0007
036201202100835300105A0002
054201202100835370076A0011
054201202100836010267A0001
031201202100836030006A0011
021201202100836040077A0011
035201202100837530006A0002
011201202100838200067A0011
053201202100838500149B0015
053201202100838540149B0015
053201202100839000034A0011
015201202100839010015A0002
057201202100839040149A0002
053201202100839040149A0011
031201202100839060059A0011
057201202100839070034A0002
031201202100841070015A0011
015201202100841080067A0002
011201202100842210067A0011
012201202100842290302A0011
011201202100842340010A0011
053201202100847520018A0011
061201202100848460077A0011
031201202100849200331A0011
062201202100850020267A0001
035201202100850490267B0006
035201202100850550267B0006
031201202100851030006A0011
035201202100851090006A0002
032201202100851150267A0011
054201202100851460267A0011
035201202100852160015A0002
011201202100853340015A0011
011201202100854300330A0011
021201202100855580034A0011
054201202100856250034A0011
05120120210085637XXXXC0007
051201202100856540034A0011
031201202100857060206A0011
025201202100857100034A0002
021201202100857220100A0011
021201202100857290048A0011
021201202100857460106A0011
054201202100857500048A0011
057201202100858490018A0002
011201202100900590092A0011
021201202100901210046A0011
035201202100903120206A0002
031201202100905560006A0011
035201202100908090006A0002
031201202100909070006A0011
031201202100910460044A0011
035201202100910510006A0002
015201202100913300048A0002
032201202100914330006A0011
036201202100914390006A0002
053201202100915020032A0011
031201202100915050048A0011
057201202100915120018B0006
053201202100915150086A0011
015201202100915210015A0002
011201202100916330316A0011
062201202100917080111A0011
051201202100918110111A0011
053201202100918350003A0011
011201202100920040018A0011
021201202100921170071A0011
032201202100921320057A0011
031201202100921320206A0011
021201202100923540336A0011
031201202100924420163A0011
021201202100924500084A0011
021201202100924520151A0011
062201202100925140151A0011
06020120210092524XXXXC0007
051201202100925380077A0011
051201202100926050025A0011
011201202100926260042A0011
031201202100926300006A0011
035201202100926390006A0002
035201202100926520006B0006
051201202100927180018A0011
031201202100928160006A0011
015201202100928170316A0002
021201202100928310094A0011
032201202100928400052A0011
035201202100928430006A0002
062201202100928440025A0011
021201202100929160098A0011
032201202100929160006A0011
036201202100929230006A0002
035201202100930040048A0002
011201202100930440316A0011
031201202100930450048A0011
035201202100931130015B0006
021201202100931150054A0011
035201202100931160015B0006
035201202100931190048A0002
032201202100931320048A0011
06020120210093139XXXXC0007
054201202100931580048A0011
011201202100932140015A0011
015201202100932380048A0002
031201202100934020048A0011
015201202100934260015A0002
032201202100936480096A0011
05120120210093746XXXXC0007
062201202100938140316A0011
036201202100938250006B0006
031201202100939010082A0011
031201202100939040008A0011
032201202100939480006A0011
012201202100939490302A0011
036201202100939550006A0002
053201202100940370062A0011
035201202100940410048A0002
054201202100941070316A0011
031201202100941140048A0011
035201202100941180048A0002
011201202100943060048A0011
021201202100944300056A0011
053201202100944400328A0011
035201202100945160331A0002
011201202100946160331A0011
015201202100949580331A0002
051201202100950230008A0011
011201202100951140041A0011
031201202100951300331A0011
015201202100951530041A0002
011201202100952290041A0011
062201202100952490111A0011
032201202100952500006A0011
036201202100952560006A0002
06020120210095302XXXXC0007
011201202100953070197A0011
051201202100953160111A0011
021201202100953570024A0011
015201202100954020316A0002
025201202100954400111A0002
053201202100954490111A0011
062201202100955010267A0011
036201202100955110267A0002
021201202100955120312A0011
031201202100955220267A0011
011201202100955260015A0011
035201202100955530267A0002
032201202100956040267A0011
054201202100956310267A0011
057201202100956370111A0002
021201202100956490111A0011
031201202100957240049A0011
053201202100958170101A0011
025201202100958530046A0002
015201202100959020015A0002
032201202100959510015A0011
011201202101000040316A0011
012201202101000160048A0011
051201202101000340096A0011
053201202101001260018B0015
053201202101001380034A0011
057201202101001450034A0002
035201202101002050015A0002
062201202101002240096A0011
057201202101002290018A0002
032201202101002430229A0011
011201202101003040015A0011
015201202101003410302A0002
054201202101003450111A0011
062201202101003500008A0011
012201202101004480048A0011
053201202101006430063A0011
031201202101006550081A0011
032201202101009210018A0011
031201202101009500020A0011
011201202101010540302A0011
051201202101011260111A0011
035201202101011580044A0002
057201202101012170002A0002
062201202101013190336A0011
036201202101013300018A0002
032201202101014440018A0011
053201202101015020013A0011
031201202101015100108A0011
035201202101015430049A0002
051201202101016230336A0011
015201202101017020316A0002
015201202101017060015A0002
036201202101017560018A0002
062201202101017570337A0011
031201202101018100015A0011
031201202101018140316A0011
031201202101018230018A0011
015201202101018360048A0002
057201202101019060328A0002
051201202101019340337A0011
011201202101019450048A0011
035201202101020080316A0002
053201202101020110328A0011
031201202101020130316A0011
057201202101020150328A0002
021201202101020160002A0011
057201202101020180086A0002
035201202101020290316A0002
035201202101021220151A0002
035201202101021320018A0002
011201202101021330316A0011
06020120210102206XXXXC0007
054201202101022260108A0011
031201202101022270018A0011
053201202101022550345A0011
035201202101022570018A0002
036201202101023130008A0002
015201202101023310316A0002
021201202101023340046A0011
062201202101023590267A0011
053201202101024200034A0011
057201202101024250034A0002
035201202101025050267A0002
031201202101025110018A0011
032201202101025170267A0011
054201202101025200015A0011
06020120210102527XXXXC0007
054201202101025490267A0011
035201202101025530018A0002
015201202101026060015A0002
031201202101026080044A0011
031201202101026330049A0011
011201202101027000015A0011
015201202101027580015A0002
053201202101029240034A0011
031201202101029390151A0011
015201202101030170001A0002
036201202101030300229A0002
057201202101030310034A0002
032201202101030520229A0011
015201202101031200203A0002
011201202101031230001A0011
031201202101031380018A0011
035201202101031420018A0002
011201202101032350203A0011
062201202101034390267A0011
036201202101034490267A0002
031201202101035010267A0011
035201202101035300267A0002
032201202101035420267A0011
053201202101036090310A0011
054201202101036130267A0011
036201202101039120025A0002
032201202101040340025A0011
036201202101041200006B0006
053201202101041560034A0011
057201202101042060034A0002
06020120210104217XXXXC0007
051201202101042300337A0011
057201202101042540034B0006
031201202101043330006A0011
035201202101044520006A0002
025201202101047410084A0002
053201202101047510084A0011
032201202101048350061A0011
054201202101052130102A0011
053201202101053140103A0011
054201202101054280333A0011
035201202101054550151A0002
053201202101055070034A0011
057201202101055130034A0002
051201202101056060333A0011
062201202101056310048A0011
032201202101057560006A0011
054201202101058490025A0011
054201202101100010048A0011
062201202101100130025A0011
036201202101100430006A0002
053201202101102010034A0011
057201202101102060034A0002
025201202101104570034B0006
036201202101106380192B0006
053201202101107100297A0011
031201202101107450006A0011
051201202101108290102A0011
035201202101108370006A0002
057201202101109000103A0002
015201202101110510048A0002
053201202101114110034A0011
035201202101114290331A0002
057201202101114450034A0002
031201202101115050192A0011
035201202101115410192A0002
011201202101116390331A0011
025201202101116520046A0002
053201202101116590046A0011
035201202101117040192B0006
057201202101118040046A0002
021201202101118120046A0011
015201202101119590028A0002
053201202101120070103A0011
052201202101121210229A0011
025201202101121550084A0002
054201202101122490020A0011
011201202101123390028A0011
053201202101123540006A0011
031201202101124270006B0015
035201202101124320006A0002
031201202101124350006A0011
05120120210112514XXXXC0007
062201202101125340020A0011
036201202101127150048B0006
057201202101128550333A0002
036201202101130230048B0006
015201202101130390092A0002
031201202101131270151A0011
015201202101132400331A0002
011201202101132450048A0011
011201202101132560331A0011
015201202101133260331A0002
053201202101134260333A0011
031201202101134390331A0011
011201202101134550092A0011
025201202101136300034B0006
061201202101137200229A0011
031201202101138390018A0011
052201202101139290229A0011
035201202101139450006A0002
05120120210113954XXXXC0007
061201202101140050229A0011
035201202101140420018A0002
015201202101140530067A0002
011201202101141440067A0011
035201202101143590331A0002
057201202101144030003A0002
057201202101144050012A0002
025201202101146020331B0006
031201202101147080331A0011
015201202101147550041A0002
052201202101147590059A0011
054201202101148050025A0011
011201202101148490041A0011
057201202101149040149A0002
025201202101149580024A0002
062201202101150000025A0011
036201202101150420044A0002
036201202101150460052A0002
036201202101151370093A0002
054201202101153360025A0011
025201202101154220059A0002
062201202101155030025A0011
015201202101155240076A0002
015201202101155340001A0002
015201202101155380028A0002
036201202101156210006B0006
053201202101156300003A0011
053201202101156320012A0011
035201202101157170163A0002
05120120210115749XXXXC0007
062201202101158150108A0011
054201202101158200025A0011
015201202101159060025A0002
015201202101200430302A0002
021201202101201010149A0011
025201202101201070077A0002
053201202101201170077A0011
035201202101202260331A0002
054201202101203500057A0011
057201202101203570018B0006
011201202101204250331A0011
062201202101204490057A0011
015201202101206490331A0002
031201202101206530006A0011
011201202101206590001A0011
036201202101207210057A0002
015201202101207240331B0006
011201202101207550331A0011
035201202101208100006A0002
025201202101209240034B0006
011201202101209490302A0011
031201202101210020331B0015
031201202101210100331B0015
031201202101210130331B0015
035201202101210180331A0002
031201202101210260331A0011
032201202101214110006A0011
036201202101214210006A0002
015201202101214430267A0002
035201202101214430331A0002
036201202101214540006B0006
032201202101215540057A0011
053201202101216010034A0011
025201202101216060077A0002
011201202101216190076A0011
011201202101216210028A0011
011201202101217150331A0011
057201202101217270034A0002
015201202101217300197A0002
011201202101218420267A0011
031201202101219330006A0011
035201202101219420006A0002
035201202101220050082A0002
015201202101220200041A0002
025201202101221440106A0002
025201202101221520336A0002
057201202101228380063A0002
011201202101231490041A0011
015201202101233050041A0002
025201202101234130046A0002
053201202101234230046A0011
053201202101234260035A0011
057201202101235390046A0002
015201202101237310331A0002
015201202101237420042A0002
057201202101238470032A0002
057201202101238480012A0002
031201202101239100331A0011
053201202101240230018A0011
021201202101240260063A0011
036201202101241370096A0002
015201202101244440267A0002
011201202101249530267A0011
015201202101251130267A0002
057201202101253000013A0002
032201202101253200006A0011
036201202101255330006A0002
025201202101257380054A0002
053201202101257500054A0011
057201202101258450054A0002
021201202101258570054A0011
031201202101301060006A0011
021201202101301360034A0011
035201202101301530006A0002
032201202101302270006A0011
021201202101302410013A0011
025201202101302530034A0002
062201202101306040026A0011
015201202101308260203A0002
011201202101311360203A0011
021201202101314090077A0011
031201202101314200059A0011
015201202101314240076A0002
032201202101314280052A0011
032201202101314290096A0011
053201202101314520032A0011
053201202101314540012A0011
015201202101315440048A0002
011201202101316270048A0011
031201202101318060044A0011
011201202101319210267A0011
011201202101319250042A0011
021201202101319430046A0011
053201202101320080034A0011
057201202101320120034A0002
061201202101320390333A0011
011201202101321030076A0011
015201202101321580067A0002
015201202101324040048A0002
011201202101325550067A0011
035201202101326050020A0002
032201202101327390048A0011
032201202101327480093A0011
015201202101327520028A0002
036201202101328030108A0002
031201202101328130108A0011
057201202101328160297A0002
031201202101328230082A0011
036201202101329170048A0002
032201202101329300048A0011
031201202101330190163A0011
025201202101330280054A0002
053201202101330390054A0011
057201202101331570054A0002
021201202101332100054A0011
011201202101332280028A0011
036201202101333570048A0002
031201202101334080048A0011
025201202101334500034B0006
053201202101335030034A0011
015201202101337180330A0002
057201202101337360034A0002
061201202101337400002A0011
021201202101337570034A0011
061201202101338590035A0011
035201202101339160035A0002
032201202101339290035A0011
035201202101340350048A0002
032201202101340420048A0011
035201202101341190081A0002
032201202101342260336A0011
032201202101342280106A0011
051201202101342370203A0011
031201202101343260006B0015
035201202101343300006A0002
062201202101343540203A0011
035201202101344050006B0006
035201202101344380331A0002
036201202101344470048A0002
031201202101345140331A0011
011201202101345370316A0011
031201202101345500020A0011
031201202101347180006A0011
035201202101347230006A0002
011201202101347230330A0011
053201202101348260034B0015
031201202101348330081A0011
025201202101348410034A0002
036201202101348410188A0002
053201202101349210034A0011
054201202101349330203A0011
057201202101350050034A0002
015201202101351500001A0002
011201202101351550197A0011
015201202101353020028A0002
011201202101353030001A0011
062201202101353200316A0011
032201202101353230188A0011
035201202101354010049A0002
035201202101355210108A0002
035201202101355230020A0002
031201202101356380028A0011
036201202101357190188A0002
011201202101357300048A0011
036201202101358000188B0006
054201202101358370316A0011
031201202101359410108A0011
031201202101359430020A0011
035201202101401460028A0002
051201202101402190333A0011
011201202101403240028A0011
011201202101403360015A0011
061201202101404090333A0011
015201202101408110330A0002
031201202101409310006A0011
025201202101409440046A0002
053201202101409520046A0011
015201202101410270302A0002
051201202101410480048A0011
057201202101410550046A0002
021201202101411060046A0011
035201202101411060006A0002
011201202101411310330A0011
031201202101412590302A0011
032201202101413200006A0011
036201202101414040006A0002
015201202101414230316A0002
032201202101414340006A0011
036201202101415290006A0002
015201202101417290015A0002
057201202101419130103A0002
031201202101419160015A0011
021201202101419190101B0015
053201202101421370080A0011
031201202101421410105A0011
053201202101421450060A0011
035201202101422370015A0002
053201202101422550034A0011
057201202101422590034A0002
011201202101424010015A0011
035201202101424240302A0002
057201202101424270080A0002
032201202101424380006A0011
015201202101425050197A0002
061201202101425080101A0011
036201202101425090006A0002
011201202101425170302A0011
036201202101425530002A0002
025201202101427010048A0002
011201202101427080041A0011
053201202101427230103A0011
011201202101427340048A0011
062201202101427530111A0011
036201202101427540192B0006
032201202101427590192A0011
036201202101428010192A0002
052201202101428080101A0011
015201202101428250015A0002
025201202101428260077A0002
053201202101428370077A0011
015201202101428530010A0002
06020120210142859XXXXC0007
051201202101429160111A0011
025201202101429330054A0002
031201202101429350015A0011
051201202101429350106A0011
051201202101429390336A0011
053201202101429440054A0011
011201202101430300010A0011
057201202101430370054A0002
015201202101430470042A0002
052201202101431560035A0011
021201202101431590095B0015
032201202101432120006A0011
054201202101432270102A0011
036201202101432370006A0002
06020120210143242XXXXC0007
052201202101432540015A0011
054201202101434230018A0011
011201202101434260042A0011
031201202101435060002A0011
031201202101435080078A0011
032201202101435340006A0011
032201202101437160192A0011
051201202101437300018A0011
053201202101437310080A0011
053201202101441380034A0011
011201202101441430197A0011
061201202101442350062A0011
025201202101442480106A0002
032201202101442560006B0015
036201202101443410006A0002
032201202101444040006A0011
015201202101444110042A0002
015201202101444410023A0002
011201202101445060042A0011
036201202101445200006A0002
015201202101445210028A0002
051201202101446070102A0011
051201202101446120192A0011
011201202101446330023A0011
057201202101448220034A0002
015201202101450210041A0002
031201202101451240006A0011
035201202101451300006A0002
025201202101451340034B0006
035201202101451470006B0006
052201202101451510052A0011
035201202101451540331A0002
011201202101452460331A0011
051201202101453100026A0011
015201202101453440042A0002
015201202101453470048A0002
015201202101454130017A0002
015201202101454170331A0002
051201202101454280151A0011
011201202101454450042A0011
036201202101456020006B0006
031201202101456050331A0011
032201202101456100048A0011
062201202101456140151A0011
053201202101457000297A0011
035201202101457020331A0002
052201202101457430105A0011
053201202101457460018B0015
025201202101457570018A0002
035201202101458110163A0002
021201202101458230331A0011
032201202101458240163A0011
015201202101458240001A0002
053201202101458250018A0011
06020120210145834XXXXC0007
036201202101458580006B0006
054201202101459160163A0011
025201202101459200331A0002
031201202101459250006A0011
054201202101459310044A0011
035201202101459340006A0002
062201202101459430052A0011
011201202101500080017A0011
015201202101500220044A0002
057201202101500310018A0002
036201202101500440048A0002
053201202101500450013B0015
031201202101500510331A0011
025201202101500560013A0002
035201202101500580188B0006
011201202101500590001A0011
011201202101501030044A0011
053201202101501080013A0011
025201202101501240192A0002
061201202101501540105A0011
011201202101502090048A0011
011201202101502110041A0011
057201202101502370035A0002
054201202101503000052A0011
015201202101503180041A0002
011201202101504180041A0011
062201202101508270192A0001
021201202101510060188A0011
052201202101512140059A0011
015201202101512500042A0002
062201202101513220188A0011
036201202101513250093A0002
021201202101515340106A0011
011201202101516220042A0011
011201202101516250042B0015
011201202101516290042B0015
015201202101516430042A0002
032201202101516450006A0011
015201202101516480042B0006
015201202101516580042B0006
011201202101517110042A0011
036201202101517200006A0002
015201202101517310092A0002
053201202101518190035A0011
032201202101519010006A0011
025201202101521280034B0006
036201202101521310006A0002
031201202101521420049A0011
062201202101522400059A0011
015201202101524070302A0002
011201202101524530302A0011
031201202101525330092A0011
057201202101525510032A0002
035201202101525570059A0002
057201202101526010333A0002
015201202101526110067A0002
035201202101526220092A0002
011201202101528250067A0011
011201202101529440092A0011
06020120210153040XXXXC0007
051201202101530580002A0011
032201202101531210093A0011
015201202101534150017A0002
031201202101534540088A0011
015201202101535090042A0002
054201202101537050018A0001
032201202101538120006A0011
036201202101538230006A0002
031201202101538480006A0011
011201202101539550028A0011
035201202101539580006A0002
062201202101540190203A0011
032201202101540210006A0011
036201202101540280006A0002
051201202101540340018A0001
035201202101541050206A0002
036201202101541410093A0002
062201202101542310044A0011
054201202101544510203A0011
062201202101545300052A0011
025201202101546470336A0002
053201202101547510034A0011
036201202101548330044A0002
062201202101549380267A0011
062201202101549390163A0011
015201202101549550041A0002
025201202101549590046A0002
053201202101550090046A0011
036201202101550130006B0006
031201202101550250006A0011
035201202101550300006A0002
06020120210155100XXXXC0007
057201202101551030046A0002
021201202101551140046A0011
054201202101551230267A0011
057201202101551520054B0006
021201202101552040054A0011
025201202101554340034A0002
011201202101555010042A0011
032201202101555160093A0011
032201202101555180044A0011
036201202101555310192B0006
036201202101557050006B0006
032201202101557120006A0011
036201202101557140006A0002
031201202101557590192A0011
035201202101558240192A0002
032201202101558370192A0011
054201202101558530026A0011
035201202101559060105A0002
035201202101559070078A0002
025201202101600400034B0006
05120120210160053XXXXC0007
036201202101600550192A0002
051201202101601070026A0011
062201202101602310046A0011
057201202101602430310A0002
05120120210160411XXXXC0007
062201202101604250026A0011
051201202101605150026A0011
054201202101605480020A0011
032201202101605580206A0011
036201202101607180052A0002
032201202101607280052A0011
035201202101608350331A0002
021201202101609290336A0011
062201202101611170020A0011
054201202101611350057A0011
012201202101612130302A0011
035201202101612440006B0006
057201202101612500034B0006
012201202101612570048A0011
05120120210161320XXXXC0007
054201202101613280034A0001
031201202101613310006A0011
035201202101613370006A0002
062201202101613510048A0011
032201202101614390006A0011
062201202101614500057A0011
036201202101615530006A0002
035201202101616130048A0002
05120120210161619XXXXC0007
051201202101616330034A0001
015201202101616440067A0002
011201202101616550048A0011
015201202101617030001A0002
015201202101617060010A0002
015201202101617180023A0002
011201202101617290023A0011
015201202101617410023A0002
015201202101619020048A0002
031201202101619360048A0011
015201202101619540203A0002
015201202101620370302A0002
031201202101620460331A0011
025201202101621440034B0006
053201202101622140034A0011
057201202101623200034A0002
062201202101624270336A0011
062201202101624310106A0011
053201202101625560310A0011
015201202101625560028A0002
015201202101626000076A0002
015201202101626070267A0002
057201202101626270012A0002
015201202101627040042A0002
053201202101627160034A0011
057201202101627220034A0002
032201202101627570192A0011
011201202101628080042A0011
035201202101628180048A0002
06020120210162830XXXXC0007
051201202101628440046A0011
011201202101628590203A0011
036201202101629390192A0002
011201202101630060048A0011
053201202101630340012A0011
036201202101631260052A0002
032201202101631430052A0011
061201202101631550297A0011
011201202101634120302A0011
052201202101634230297A0011
021201202101636290032A0011
053201202101636330333A0011
015201202101636410302A0002
032201202101636470059A0011
035201202101636480331A0002
011201202101637210302A0011
021201202101637330331A0011
032201202101638520192A0011
054201202101639190149A0011
025201202101639290331A0002
031201202101640170331A0011
011201202101640420076A0011
011201202101640440267A0011
011201202101640450028A0011
035201202101643270331A0002
011201202101645000331A0011
061201202101645010333A0011
06020120210164532XXXXC0007
015201202101645350149A0002
061201202101645380032A0011
051201202101645470229A0011
011201202101646130017A0011
061201202101646190012A0011
061201202101646250003A0011
015201202101648090331A0002
053201202101649290034A0011
031201202101649310331A0011
057201202101649360034A0002
062201202101649450229A0011
057201202101650510034B0006
011201202101651140149A0011
025201202101654440034B0006
031201202101654580006A0011
035201202101656150006A0002
015201202101657410017A0002
054201202101658240020A0011
015201202101700130042A0002
053201202101701120034A0011
011201202101701570042A0011
057201202101702190034A0002
05120120210170255XXXXC0007
032201202101702560006A0011
036201202101703080044A0002
062201202101703220020A0011
031201202101704300044A0011
052201202101704310081A0011
015201202101705260042A0002
061201202101705310297A0011
052201202101706150297A0011
035201202101706200088A0002
011201202101707140042A0011
05120120210170754XXXXC0007
061201202101708120081A0011
011201202101709330017A0011
021201202101711540077B0015
011201202101712490001A0011
011201202101712510010A0011
011201202101712540023A0011
011201202101712550067A0011
062201202101712560084A0001
051201202101714270084A0001
057201202101714340002A0002
032201202101714340006B0015
036201202101714390006A0002
057201202101715140103A0002
031201202101715570088A0011
036201202101717090006B0006
032201202101717150006A0011
031201202101717280006B0015
035201202101717310006A0002
051201202101720210149A0011
031201202101720220006A0011
035201202101720260006A0002
062201202101722310046A0011
053201202101723130103A0011
062201202101725010010A0011
025201202101726230014A0002
021201202101728520095B0015
06020120210172858XXXXC0007
051201202101729130046A0011
035201202101729430044A0002
057201202101730320060A0002
015201202101731020302A0002
011201202101732340302A0011
025201202101735100046A0002
053201202101735180046A0011
061201202101735340026A0011
035201202101735520331A0002
015201202101735540302A0002
015201202101736100067A0002
057201202101736170046A0002
021201202101736280046A0011
011201202101736490067A0011
031201202101736550044A0011
06020120210173657XXXXC0007
061201202101737090026A0011
015201202101737100048A0002
06020120210173712XXXXC0007
051201202101737290003A0011
051201202101737350336A0011
051201202101737370106A0011
011201202101738150048A0011
031201202101738200006A0011
035201202101738270006A0002
06020120210173945XXXXC0007
052201202101739570032A0011
054201202101741020046A0011
025201202101741200034B0006
053201202101741350034A0011
015201202101741490042A0002
051201202101742400096A0011
015201202101742440076A0002
057201202101742530034A0002
011201202101742560042A0011
06020120210174304XXXXC0007
051201202101743160052A0011
062201202101744070096A0011
011201202101744360076A0011
025201202101745010149A0002
054201202101746320106A0011
015201202101747160092A0002
051201202101747190106A0011
031201202101747540006A0011
035201202101747590006A0002
06020120210174824XXXXC0007
052201202101748380026A0011
031201202101748480006A0011
035201202101748580006A0002
011201202101749580092A0011
036201202101750230192A0002
062201202101750280052A0011
036201202101750550229A0002
032201202101751080229A0011
051201202101751430229A0011
015201202101751450023A0002
025201202101751540084B0006
021201202101751570084A0011
053201202101752130084B0015
053201202101752170084B0015
015201202101752220001A0002
025201202101752340084A0002
062201202101752350229A0011
053201202101752470084A0011
051201202101754090046A0011
057201202101754380084A0002
021201202101754500084A0011
035201202101755180020A0002
035201202101755200151A0002
062201202101755350012A0011
054201202101757080010A0011
06020120210175722XXXXC0007
052201202101757370012A0011
053201202101757460034A0011
057201202101757530034A0002
025201202101759550111A0002
053201202101800040111A0011
032201202101802210006A0011
036201202101802260006A0002
036201202101805050044A0002
015201202101805230330A0002
035201202101806020108A0002
031201202101806040108A0011
06020120210180626XXXXC0007
051201202101806400188A0011
011201202101807200330A0011
031201202101807220020A0011
031201202101807240151A0011
057201202101807410111A0002
021201202101807560111A0011
036201202101809280093A0002
032201202101809320093A0011
015201202101810370010A0002
025201202101810560034B0006
015201202101811210330A0002
021201202101812000034A0011
011201202101812130010A0011
025201202101812540111A0002
057201202101814170034A0002
062201202101815140197A0011
011201202101815360041A0011
015201202101816090041A0002
036201202101816470093A0002
031201202101816560006A0011
035201202101817010006A0002
025201202101818540176B0006
021201202101818580176A0011
025201202101819000176A0002
031201202101820290192A0011
031201202101820310192B0015
015201202101821530067A0002
052201202101822290229A0011
021201202101823130345B0015
054201202101824040046A0011
015201202101825140092A0002
015201202101825180028A0002
05120120210182624XXXXC0007
032201202101826330092A0011
032201202101826370028A0011
051201202101826380046A0011
06020120210182722XXXXC0007
061201202101827330032A0011
051201202101827350151A0011
025201202101827470151A0002
06020120210182806XXXXC0007
061201202101828130229A0011
051201202101828250192A0011
021201202101828410151A0011
025201202101828470192A0002
062201202101829060151A0011
06020120210183000XXXXC0007
054201202101830170020A0011
054201202101833580034A0001
051201202101834220034A0001
032201202101837230006A0011
036201202101837360006A0002
032201202101838160006A0011
036201202101839420006A0002
052201202101839420032A0011
06020120210183947XXXXC0007
062201202101840060151A0011
06020120210184122XXXXC0007
054201202101841400151A0011
052201202101842170059A0011
035201202101843000081A0002
032201202101843090092B0015
036201202101843110028A0002
035201202101843420044B0006
031201202101843510006A0011
031201202101843530044A0011
035201202101844000006A0002
035201202101844140052A0002
057201202101844260080A0002
062201202101844260188A0011
062201202101845290020A0011
061201202101845350059A0011
035201202101846340151A0002
031201202101847340044B0015
035201202101847420044A0002
031201202101847470044A0011
036201202101848030006B0006
057201202101849510012A0002
057201202101849530003A0002
025201202101850450106A0002
054201202101851180046A0011
035201202101851460028B0006
035201202101851490092A0002
053201202101851560034A0011
051201202101852000046A0011
025201202101852020095A0002
053201202101852130095A0011
025201202101852170026A0002
011201202101853040092A0011
011201202101853050028A0011
057201202101853060034A0002
025201202101853260084A0002
021201202101853500084A0011
052201202101853570059A0011
053201202101854010034A0011
057201202101854050034A0002
057201202101854080095A0002
025201202101854120102A0002
031201202101854420018A0011
035201202101855060163A0002
062201202101855210084A0011
031201202101856590052A0011
06020120210185718XXXXC0007
035201202101857300018A0002
051201202101857330084A0011
035201202101858140020A0002
012201202101859400048A0011
032201202101900540006A0011
036201202101901060057A0002
036201202101901360006A0002
031201202101901520006A0011
035201202101902510006A0002
032201202101903440006A0011
057201202101904310084A0002
021201202101904430084A0011
057201202101904530062A0002
025201202101905200034B0006
036201202101906410006A0002
015201202101907210092A0002
015201202101908570076A0002
011201202101911090076A0011
025201202101913120084A0002
031201202101915030006A0011
035201202101915120006A0002
025201202101915320034B0006
061201202101917300059A0011
057201202101917310101A0002
062201202101918130077A0011
035201202101920300082A0002
051201202101921590052A0011
035201202101922460188A0002
061201202101923320035A0011
035201202101924260206A0002
035201202101924340108A0002
031201202101924410108A0011
032201202101924410206A0011
036201202101924480206A0002
031201202101925090078A0011
031201202101925120105A0011
031201202101925140006A0011
031201202101925170206A0011
012201202101926070048A0011
057201202101926090013A0002
053201202101926180013A0011
035201202101926360006A0002
035201202101926530006B0006
051201202101927250006A0001
025201202101929200046A0002
035201202101929500078A0002
062201202101930100052A0011
021201202101930200018A0011
036201202101931390038A0002
025201202101934320034B0006
057201202101935150103A0002
015201202101936060042A0002
054201202101936370197A0011
011201202101937010042A0011
06020120210193758XXXXC0007
052201202101938160035A0011
015201202101938560203A0002
062201202101941310006A0001
036201202101941460006B0006
032201202101941520006A0011
036201202101941550006A0002
06020120210194203XXXXC0007
051201202101942160052A0011
031201202101942300006A0011
051201202101942380299A0011
051201202101943040006A0011
015201202101943310028A0002
057201202101943330297A0002
025201202101943410312A0002
052201202101944150229A0011
057201202101944160035A0002
025201202101944390034B0006
051201202101944590077A0011
061201202101947090052A0011
012201202101947480048A0011
011201202101949120028A0011
036201202101949560096A0002
015201202101950200267A0002
061201202101950370229A0011
025201202101951190063A0002
011201202101953070267A0011
031201202101954230008A0011
057201202101955160032A0002
036201202101955360044A0002
015201202101956310042A0002
011201202101957470042A0011
015201202101958100042A0002
015201202101958130042B0006
015201202101958150042B0006
011201202102000350042A0011
062201202102001470006A0011
025201202102002410077A0002
036201202102002430006A0002
031201202102003010006A0011
025201202102004250039B0006
015201202102004400267A0002
025201202102004420034B0006
025201202102005480013A0002
035201202102006510006A0002
032201202102007320006A0011
025201202102007520056A0002
057201202102010140310A0002
035201202102010560006A0002
015201202102012110197A0002
025201202102014250100A0002
035201202102014570206A0002
025201202102015160024B0006
021201202102015180024A0011
025201202102015200024A0002
035201202102015470105A0002
031201202102015510105A0011
031201202102015520206A0011
021201202102017280034A0011
021201202102017510034B0015
025201202102018350018A0002
052201202102019190105A0011
031201202102021270006A0011
021201202102022190018A0011
05120120210202223XXXXC0007
061201202102022380105A0011
035201202102022420006A0002
057201202102022580333A0002
032201202102023090006A0011
054201202102023260018A0011
051201202102024040006A0011
025201202102027100034A0002
015201202102027220042A0002
053201202102027260034A0011
011201202102028070042A0011
015201202102029020042A0002
053201202102030410034B0015
011201202102031420042A0011
051201202102033270028A0011
051201202102033320048A0011
025201202102033450028A0002
025201202102033460048A0002
015201202102034360042A0002
062201202102035440034A0011
052201202102037400034A0011
035201202102039230008A0002
015201202102043080018A0002
021201202102044040018A0011
035201202102058430229A0002
025201202102059420054A0002
025201202102059480094A0002
062201202102102120006A0011
06020120210210241XXXXC0007
051201202102103060006A0011
057201202102111490336A0002
025201202102111540051A0002
025201202102112060043A0002
025201202102112200098A0002
035201202102115250052A0002
035201202102119300206A0002
025201202102121430006A0002
011201202102122090042A0011
035201202102123000059A0002
035201202102125020105A0002
032201202102125110105A0011
051201202102125320105A0011
035201202102126550108A0002
061201202102126590105A0011
032201202102128080052A0011
036201202102129060052A0002
025201202102132300018A0002
015201202102139070076A0002
011201202102140240076A0011
035201202102141320049A0002
015201202102143050010A0002
015201202102143160076A0002
015201202102143470017A0002
025201202102144330034A0002
032201202102145380034A0011
011201202102151130010A0011
054201202102154330034A0011
051201202102157590034A0011
025201202102202470018B0006
025201202102203190034A0002
053201202102203320034A0011
057201202102209350034A0002
021201202102210560034A0011
036201202102211160061A0002
062201202102224120006A0001
051201202102229050006A0001
035201202102244300105A0002
025201202102305370034A0002
031201202102307300034A0011
036201202102312010034A0002
031201202102312280034A0011
051201202102313140034A0011
025201202102313300034A0002
015201202102321030010A0002
