057201007140042560040A0002
057201007140051110034A0002
031201007140052100034A0011
035201007140055230034A0002
011201007140056390034A0011
012201007140057310034A0011
015201007140059090034A0002
021201007140104060034A0011
053201007140108150032B0015
025201007140109150034A0002
057201007140113570310A0002
035201007140127570277A0002
031201007140128320277A0011
021201007140136590034A0011
025201007140149020034A0002
021201007140151250034A0011
025201007140151380034A0002
057201007140231280091A0002
052201007140601420277A0011
021201007140604340034A0011
062201007140604470277A0011
054201007140607500034A0011
012201007140608090034A0011
05120100714061141XXXXC0007
051201007140612030034A0011
025201007140621050034A0002
031201007140622250034A0011
036201007140623440034A0002
035201007140624470277A0002
031201007140625200277A0011
021201007140626100034A0011
021201007140626530014A0011
035201007140639400277A0002
025201007140650450034A0002
032201007140654540093A0011
031201007140658260277A0011
025201007140658320034B0006
021201007140658340034A0011
035201007140701560277A0002
031201007140705260277A0011
036201007140707160277A0002
025201007140715050034A0002
011201007140720020300A0011
025201007140722130034B0006
011201007140723360034A0011
053201007140723510192A0011
057201007140723570192A0002
032201007140724210192A0011
031201007140724360038A0011
012201007140724560034A0011
015201007140725310034A0002
015201007140729270300A0002
032201007140731190277A0011
036201007140732270277A0002
011201007140733360300A0011
036201007140734010277B0006
031201007140734160277A0011
032201007140735580025A0011
011201007140739350034A0011
015201007140740070034A0002
036201007140742160192A0002
06020100714074218XXXXC0007
032201007140742190192A0011
051201007140742360034A0001
021201007140745100034A0011
031201007140747370007A0011
035201007140748170277A0002
032201007140748390277A0011
035201007140749050038A0002
032201007140749160038A0011
025201007140750550034A0002
025201007140751220057A0002
032201007140753430030A0011
011201007140754460001A0011
036201007140754510038A0002
031201007140755020038A0011
053201007140755100091A0011
053201007140755440026A0011
036201007140757020192A0002
053201007140757180034A0011
061201007140758060091A0011
057201007140759540034A0002
052201007140801320091A0011
031201007140804310277B0015
035201007140804380277A0002
035201007140804560277B0006
011201007140805290326A0011
011201007140805360018A0011
051201007140806040018A0011
036201007140808250025A0002
057201007140811570091A0002
054201007140813070018A0011
053201007140813360091A0011
011201007140813550203A0011
011201007140814280316B0015
053201007140814580148A0011
015201007140815140316A0002
011201007140815210316A0011
032201007140817130342A0011
036201007140818030093A0002
057201007140818090091A0002
021201007140818220091A0011
011201007140818540093A0011
035201007140818570007A0002
053201007140819170091B0015
053201007140819270034A0011
057201007140819310034A0002
057201007140819340034B0006
032201007140820050025A0011
051201007140821080018A0011
054201007140821490018A0011
057201007140822410091A0002
036201007140823140025A0002
053201007140823300223A0011
053201007140823460091A0011
057201007140824030091A0002
062201007140831000093A0011
032201007140832220342B0015
011201007140832390010A0011
036201007140836460342A0002
011201007140837070011A0011
032201007140837150249A0011
021201007140837300111A0011
032201007140837380025A0011
031201007140837400105A0011
031201007140837430331A0011
015201007140838430326A0002
021201007140839330326A0011
035201007140840510277B0006
031201007140841590326B0015
031201007140842020326B0015
035201007140842040326A0002
031201007140842150277A0011
053201007140842170034A0011
035201007140842200277A0002
011201007140842300033A0011
035201007140842350277B0006
057201007140842560034A0002
036201007140843580030A0002
051201007140844030018A0011
057201007140844280034B0006
035201007140844450326B0006
025201007140845120034B0006
011201007140846390326A0011
052201007140847080105A0011
061201007140848120105A0011
011201007140853290017A0011
021201007140853410046A0011
032201007140853460030A0011
032201007140853470342A0011
032201007140853500322A0011
054201007140855340018A0011
031201007140856450059A0011
015201007140857220017A0002
021201007140858150034A0011
062201007140858200299A0011
051201007140858410018A0011
061201007140858530034A0011
035201007140859080034A0002
011201007140859090017A0011
031201007140900090034A0011
052201007140900370034A0011
057201007140900560034A0002
053201007140901170034A0011
057201007140902160034A0002
011201007140904550172A0011
021201007140905100002A0011
021201007140906530034A0011
054201007140907210034A0011
051201007140907380034A0011
021201007140911080267A0011
031201007140911210078A0011
053201007140911240336A0011
05120100714091219XXXXC0007
036201007140912230342A0002
054201007140912350267A0011
015201007140914050011A0002
015201007140914120300A0002
015201007140914300326A0002
062201007140915250316A0011
011201007140915260016A0011
032201007140915390229A0011
021201007140915410211A0011
052201007140915490105A0011
031201007140915540326A0011
035201007140917240277B0006
035201007140917250326A0002
061201007140917290105A0011
06020100714091741XXXXC0007
054201007140918090326A0001
015201007140918380001A0002
011201007140918480008A0011
052201007140918540105A0011
031201007140919010009A0011
051201007140919020229A0011
011201007140919360001A0011
061201007140920100105A0011
025201007140920100046A0002
057201007140921260018A0002
062201007140922160229A0011
015201007140922230016A0002
062201007140923180316A0011
011201007140923440011A0011
032201007140923590342A0011
015201007140925000326B0006
054201007140925160316A0011
011201007140925460326A0011
015201007140926040326A0002
021201007140926320046A0011
031201007140926440027A0011
015201007140927250316A0002
036201007140928420342A0002
031201007140928520342A0011
035201007140929050342A0002
032201007140929160342A0011
053201007140929550021A0011
053201007140929580333A0011
031201007140930100206A0011
035201007140930580277B0006
053201007140931130018A0011
035201007140931180105A0002
032201007140931260105A0011
015201007140931320172A0002
057201007140931450002A0002
011201007140932400326A0011
057201007140933140074B0006
057201007140933210074B0006
053201007140933220074A0011
053201007140933240310A0011
011201007140933300316A0011
015201007140933320326A0002
011201007140933390172A0011
011201007140934030275A0011
053201007140934080340A0011
032201007140934190300A0011
021201007140934430195A0011
05120100714093445XXXXC0007
062201007140934570275A0011
036201007140934590300A0002
054201007140935100195A0011
011201007140935500326A0011
011201007140936550300A0011
015201007140936580017A0002
011201007140937040076A0011
057201007140938090211A0002
021201007140938210211A0011
057201007140938280310A0002
031201007140939310006A0011
036201007140939350275A0002
015201007140940150326A0002
053201007140940540034B0015
057201007140941020034A0002
015201007140941120008A0002
015201007140941170316A0002
011201007140941420275A0011
031201007140942160326A0011
053201007140942180034A0011
012201007140942180275A0011
057201007140942220223A0002
057201007140942250034A0002
011201007140944020017A0011
021201007140944330210A0011
053201007140944440070A0011
035201007140947080326A0002
011201007140948070326A0011
015201007140948220326A0002
011201007140949340316A0011
031201007140951160277A0011
035201007140951530206A0002
035201007140952410277A0002
015201007140952580017A0002
053201007140954450223A0011
053201007140954570022A0011
025201007140955140070A0002
031201007140955160081A0011
015201007140955230203A0002
011201007140956420203A0011
015201007140957400203A0002
015201007140957490267A0002
011201007140957500203A0011
015201007140958350203A0002
021201007140958420024A0011
021201007140958560084A0011
031201007140959020206A0011
06020100714095912XXXXC0007
051201007140959310229A0011
025201007141000000229A0002
031201007141000090277A0011
035201007141000140277A0002
021201007141000160229A0011
036201007141000160030A0002
015201007141000250001A0002
062201007141000550229A0011
054201007141001010148A0011
011201007141001100001A0011
011201007141002100267A0011
053201007141002240003A0011
011201007141002240017A0011
051201007141006090148A0011
053201007141006210034A0011
053201007141007460310A0011
053201007141007490002A0011
057201007141008010034A0002
021201007141008360034A0011
025201007141008420034A0002
011201007141011280058A0011
032201007141012050030A0011
057201007141012100019B0006
053201007141012210034A0011
057201007141012250003A0002
057201007141012280034A0002
057201007141012290034B0006
057201007141012360333A0002
062201007141013220316A0011
036201007141013420105A0002
031201007141013490105A0011
012201007141013590275A0011
025201007141014090018A0002
053201007141015460150A0011
054201007141015540316A0011
021201007141016260312A0011
031201007141017420277A0011
035201007141018130277A0002
035201007141018570105A0002
032201007141019050105A0011
015201007141019100058A0002
053201007141019270003A0011
011201007141020320058A0011
011201007141021510203A0011
053201007141022060019A0011
015201007141022250300A0002
051201007141022440275A0011
031201007141022520277A0011
025201007141022570275A0002
053201007141023080275A0011
011201007141023230300A0011
035201007141023280277A0002
053201007141023330064A0011
051201007141024000300A0011
053201007141026120333A0011
021201007141026210346A0011
011201007141026530016A0011
05120100714102716XXXXC0007
054201007141027380300A0011
015201007141028480172A0002
06020100714102954XXXXC0007
035201007141030020331A0002
051201007141030100277A0001
011201007141030170172A0011
035201007141030460081A0002
031201007141030530331A0011
05120100714103153XXXXC0007
062201007141032160277A0001
032201007141032160090A0011
036201007141032260277B0006
061201007141033000277A0001
035201007141033180277B0006
036201007141033500331A0002
031201007141033570331A0011
035201007141034420331A0002
035201007141034500206A0002
031201007141035290277A0011
021201007141035370042A0011
035201007141036380277A0002
053201007141038350083A0011
031201007141040390277A0011
031201007141040510277B0015
053201007141042090344A0011
062201007141042350316A0011
035201007141042360277A0002
057201007141043370002A0002
015201007141044240001A0002
011201007141045060001A0011
025201007141045110034B0006
025201007141046250211A0002
015201007141047080267A0002
021201007141047310339A0011
057201007141047510083A0002
031201007141048130277A0011
011201007141048470267A0011
025201007141049500084A0002
025201007141049530339A0002
021201007141049580339A0011
053201007141050500002A0011
054201007141052300316A0011
015201007141053000316A0002
036201007141053050105A0002
021201007141053070034A0011
025201007141053110034A0002
031201007141053120105A0011
025201007141053190018B0006
053201007141053440018A0011
031201007141055180020A0011
021201007141055360104A0011
015201007141056170016A0002
052201007141056500016A0001
051201007141056500090A0011
021201007141056540211A0011
057201007141058550150A0002
057201007141058570090A0002
021201007141102240005A0011
031201007141103310277B0015
035201007141104210277A0002
036201007141104240105A0002
025201007141104450111A0002
021201007141105290084A0011
031201007141105400105A0011
031201007141105430206A0011
032201007141105470097A0011
057201007141106350275A0002
06020100714110707XXXXC0007
062201007141107070016A0001
06020100714110729XXXXC0007
036201007141107350192B0006
051201007141107440111A0001
06020100714110814XXXXC0007
052201007141108240105A0011
053201007141108460022A0011
011201007141110010275A0011
051201007141111420229A0011
053201007141111530345B0015
053201007141112010034A0011
061201007141112010105A0011
057201007141112050345A0002
053201007141112070345A0011
053201007141112090034B0015
053201007141112110345B0015
057201007141112130034A0002
053201007141113340034A0011
057201007141113400034A0002
057201007141114200018A0002
021201007141114330018A0011
053201007141114490083A0011
052201007141115080105A0011
062201007141115570229A0011
015201007141116470275A0002
054201007141117070016A0001
051201007141117200229A0011
053201007141117570034A0011
053201007141118020275A0011
057201007141118060034A0002
025201007141118060018A0002
062201007141119520058A0011
06020100714112046XXXXC0007
054201007141121090058A0011
062201007141121210105A0011
062201007141122210229A0011
031201007141123030277A0011
021201007141123560102A0011
035201007141124140277A0002
051201007141125510016A0001
025201007141126110016B0006
053201007141126470016A0011
057201007141127440016A0002
021201007141129480016A0011
015201007141129510010A0002
032201007141130080192A0011
054201007141130200018A0001
057201007141130490275A0002
031201007141130520277A0011
035201007141130570277A0002
015201007141131030195A0002
051201007141131050018A0001
054201007141131110016A0011
011201007141131510010A0011
011201007141131540275A0011
057201007141132120223A0002
015201007141132480011A0002
011201007141133020195A0011
015201007141134130001A0002
051201007141134350084A0011
011201007141134550001A0011
012201007141135260275A0011
012201007141136130275A0011
011201007141136300011A0011
053201007141136480034A0011
025201007141136580104A0002
051201007141137180017A0011
057201007141137460034A0002
05120100714113904XXXXC0007
062201007141139170017A0011
054201007141140240017A0011
015201007141141450275A0002
052201007141142220331A0001
053201007141143250070A0011
053201007141143280297A0011
054201007141145100111A0001
051201007141146480111A0001
053201007141147190091A0011
053201007141147220040A0011
031201007141147290275A0011
031201007141147310043A0011
05120100714114733XXXXC0007
031201007141147340198A0011
031201007141147350007A0011
054201007141147470111A0001
035201007141148080275A0002
051201007141148530016A0011
011201007141149020275A0011
051201007141149100111A0001
025201007141149420016A0002
053201007141150000016A0011
061201007141150130331A0001
057201007141150150040A0002
036201007141150460097A0002
025201007141151530040B0006
051201007141151560084A0011
057201007141152000016A0002
053201007141152020062A0011
053201007141152100040A0011
015201007141153440203A0002
015201007141154310076A0002
011201007141155410018A0011
051201007141157140018A0011
015201007141157210300A0002
057201007141158050018A0002
057201007141158380046A0002
053201007141159170018A0011
011201007141159200300A0011
011201007141159480316A0011
057201007141159500297A0002
053201007141159570080A0011
057201007141200260344A0002
057201007141200320003A0002
053201007141201150016A0011
057201007141201160310A0002
035201007141201170007A0002
035201007141201180059A0002
057201007141201240333A0002
015201007141201540010A0002
015201007141202060001A0002
025201007141202190084A0002
036201007141202310030A0002
057201007141202410345A0002
025201007141203120016A0002
015201007141206300172A0002
015201007141207030267A0002
025201007141207450042A0002
025201007141208290102A0002
057201007141209050080A0002
053201007141209100333A0011
021201007141209440071A0011
053201007141212320016A0011
011201007141213120076A0011
011201007141213150203A0011
053201007141213250297A0011
032201007141213360030A0011
036201007141214210249A0002
035201007141214230198A0002
036201007141215190105A0002
031201007141215260105A0011
036201007141215540342A0002
035201007141216370277B0006
011201007141216580010A0011
011201007141217000001A0011
031201007141217030059A0011
031201007141217060007A0011
015201007141218500017A0002
057201007141223240005A0002
053201007141223450344A0011
053201007141223490310A0011
035201007141226570105A0002
032201007141227040105A0011
057201007141227290148A0002
011201007141228020017A0011
053201007141228130003A0011
032201007141228260051A0011
057201007141228300070A0002
057201007141229080074A0002
032201007141231490342A0011
011201007141232360267A0011
011201007141232390172A0011
015201007141234310316A0002
053201007141235400074A0011
035201007141235420009A0002
032201007141235440249A0011
032201007141235450198A0011
015201007141238320172A0002
021201007141238530102A0011
021201007141238540071B0015
021201007141238550042A0011
035201007141239320007A0002
036201007141242010229A0002
035201007141242250277B0006
011201007141242350172A0011
011201007141243260316A0011
057201007141243310018A0002
053201007141243390223A0011
015201007141243450172A0002
035201007141243470277B0006
062201007141244460316A0011
025201007141244590018B0006
053201007141245100018A0011
035201007141246470331B0006
057201007141247250018A0002
057201007141247290016A0002
021201007141247430016A0011
021201007141247560070A0011
062201007141248320275A0011
06020100714124903XXXXC0007
054201007141249110316A0011
051201007141249140299A0011
021201007141251280024A0011
031201007141251410009A0011
011201007141253170016B0015
054201007141253540016A0011
035201007141254410105A0002
032201007141254510105A0011
031201007141256140277A0011
031201007141256560277B0015
035201007141258160277A0002
031201007141258250027B0015
031201007141258270007A0011
031201007141259430277A0011
036201007141300140105A0002
031201007141300220105A0011
054201007141301020275A0011
057201007141301040019A0002
035201007141301130277A0002
032201007141301580090A0011
031201007141302000043B0015
053201007141302030150A0011
031201007141302030043B0015
035201007141302050043A0002
031201007141302080277A0011
031201007141302140043A0011
035201007141302170277A0002
011201007141302340197A0011
062201007141302500299A0011
036201007141304500277B0006
031201007141305010277A0011
062201007141308300316A0011
062201007141309140275A0011
015201007141309570058A0002
053201007141311430035A0011
036201007141312000275A0002
011201007141313010058A0011
062201007141313290277A0011
036201007141313410277A0002
011201007141313480275A0011
031201007141313530277A0011
035201007141313570105A0002
032201007141314060105A0011
035201007141314210277A0002
053201007141314550034A0011
053201007141315070080A0011
015201007141315130010A0002
051201007141315420016A0011
025201007141316080016A0002
053201007141316200016A0011
057201007141316470034A0002
05120100714131740XXXXC0007
054201007141317560223A0011
011201007141317590326A0011
053201007141318100148A0011
053201007141318420034A0011
057201007141318460034A0002
054201007141320470316A0011
015201007141320570203A0002
053201007141321060340B0015
053201007141321100040B0015
053201007141321150005A0011
057201007141321180340A0002
053201007141321190340A0011
011201007141321590010A0011
011201007141322130203A0011
051201007141323290223A0011
053201007141324380032B0015
053201007141324470034A0011
057201007141324510034A0002
057201007141324520034B0006
036201007141325160105A0002
031201007141325220105A0011
053201007141328440336B0015
053201007141328520034A0011
057201007141328560034A0002
057201007141328570034B0006
036201007141330290249A0002
035201007141331040105A0002
015201007141331110326A0002
032201007141331120105A0011
062201007141331160197A0011
025201007141331390102A0002
06020100714133332XXXXC0007
032201007141334010229A0011
032201007141334020326A0011
054201007141334040197A0011
057201007141334410040A0002
057201007141334440032A0002
053201007141334570040A0011
053201007141335040032A0011
012201007141335470275A0011
021201007141335540104A0011
061201007141336200040A0011
035201007141336380040A0002
035201007141336400032A0002
011201007141337220172A0011
021201007141337380084A0011
015201007141338070058A0002
015201007141338150001A0002
062201007141338380275A0011
015201007141338410300A0002
057201007141339010034B0006
011201007141339020058A0011
054201007141339190275A0011
012201007141339310275A0011
015201007141339410172A0002
054201007141340370016A0011
011201007141340430172A0011
011201007141341210001A0011
054201007141341490074A0011
057201007141341530091A0002
031201007141342450277A0011
051201007141342460016A0011
012201007141343230275A0011
035201007141344250277A0002
051201007141344590074A0011
011201007141345210300A0011
035201007141345470009A0002
031201007141346000009A0011
035201007141346060009A0002
036201007141346310277B0006
032201007141347330277A0011
021201007141348360102A0011
031201007141349280163A0011
061201007141350520009A0001
015201007141351210267A0002
025201007141351270102A0002
053201007141352110032A0011
053201007141353430034A0011
057201007141353490034A0002
035201007141354480326A0002
054201007141355400016A0011
015201007141356250197A0002
011201007141356320326A0011
011201007141357270267A0011
05120100714135819XXXXC0007
051201007141358550016A0011
021201007141400390102A0011
06020100714140154XXXXC0007
052201007141402100027A0011
054201007141402260111A0001
012201007141402450275A0011
053201007141402590034A0011
057201007141403030034A0002
015201007141403130275A0002
061201007141403330333A0011
053201007141403440034A0011
061201007141403460003A0011
062201007141403460071A0011
032201007141404480275A0011
036201007141405230277A0002
031201007141405340277A0011
035201007141405410277A0002
057201007141405410034A0002
031201007141406060277A0011
057201007141407420083A0002
062201007141407560011A0011
051201007141408590111A0001
06020100714140916XXXXC0007
054201007141410110011A0011
035201007141410260277A0002
036201007141410390275A0002
035201007141411220206A0002
036201007141412260192A0002
021201007141412270046A0011
031201007141412360192A0011
035201007141412510192A0002
031201007141414150192A0011
035201007141414320192A0002
032201007141414500192A0011
021201007141416300045A0011
057201007141417580150A0002
015201007141419020011A0002
035201007141419310081A0002
057201007141420280034B0006
036201007141420550275B0006
031201007141421510331A0011
011201007141422540275A0011
053201007141424100034A0011
031201007141424120277A0011
057201007141424140034A0002
035201007141424170277A0002
012201007141424200275A0011
015201007141425420326A0002
025201007141425590018B0006
057201007141426030300A0002
053201007141426230300A0011
061201007141426370027A0011
057201007141426390300A0002
031201007141427150277A0011
035201007141427200277A0002
053201007141427370300A0011
021201007141427500298A0011
011201007141428020326A0011
021201007141428030034A0011
025201007141428090034A0002
036201007141429550105A0002
031201007141430030105A0011
015201007141430070316A0002
015201007141431070326A0002
015201007141431110076A0002
011201007141431470316A0011
025201007141431510070A0002
054201007141432140300A0011
021201007141432270034A0011
025201007141432320034A0002
035201007141433280326B0006
031201007141433320326A0011
035201007141433350326A0002
031201007141434340081A0011
031201007141434470326A0011
011201007141434570076A0011
053201007141435130034A0011
057201007141437140034A0002
035201007141438110105A0002
032201007141438220105A0011
053201007141438260034A0011
035201007141440020331A0002
031201007141440440331A0011
021201007141440520337A0011
054201007141442280016A0011
011201007141442430197A0011
054201007141442480111A0001
051201007141443450111A0001
057201007141444270035A0002
057201007141444390034A0002
015201007141445120203A0002
015201007141448040275A0002
021201007141448400275A0011
051201007141449510016A0011
051201007141449590016A0011
051201007141450160016A0011
051201007141450270016A0011
053201007141451140034A0011
057201007141451200034A0002
057201007141451470034B0006
015201007141451530195A0002
036201007141453450105A0002
031201007141453530105A0011
06020100714145413XXXXC0007
052201007141454270027A0011
053201007141454360083A0011
062201007141454440211A0011
011201007141455480203A0011
035201007141456010105A0002
031201007141456090277A0011
06020100714145628XXXXC0007
051201007141456460299A0011
035201007141456530277A0002
035201007141458040211A0002
036201007141458490105B0006
032201007141458580211A0011
031201007141458590105A0011
015201007141500380316A0002
011201007141502350195A0011
036201007141505030342A0002
015201007141505410010A0002
011201007141507210010A0011
015201007141508000172A0002
06020100714150851XXXXC0007
035201007141508590105A0002
052201007141509070198A0011
011201007141509150172A0011
05120100714150954XXXXC0007
061201007141510140198A0011
053201007141510580034A0011
057201007141511040034A0002
015201007141511090058A0002
06020100714151204XXXXC0007
011201007141512130058A0011
054201007141512300316A0001
051201007141513050333A0011
051201007141513100003A0011
031201007141513330277A0011
06020100714151404XXXXC0007
051201007141514220211A0011
035201007141514510277A0002
025201007141514510275A0002
053201007141515190275A0011
061201007141515240027A0011
054201007141515270211A0011
031201007141517360277A0011
035201007141517410277A0002
035201007141520110038A0002
015201007141521180001A0002
032201007141521250342A0011
05120100714152140XXXXC0007
051201007141521580211A0011
011201007141521590001A0011
053201007141523460035A0011
057201007141526230275A0002
011201007141527200275A0011
015201007141528230197A0002
062201007141530070316A0001
053201007141530210018A0011
057201007141530430018A0002
053201007141531200034A0011
032201007141531480316A0011
057201007141533370034A0002
015201007141533550172A0002
011201007141535190172A0011
021201007141535430018A0011
054201007141536480102A0011
015201007141536560195A0002
032201007141537440195A0011
015201007141538000275A0002
053201007141538370275A0011
036201007141538430195A0002
011201007141539370195A0011
06020100714153955XXXXC0007
053201007141540300050A0011
057201007141540340344A0002
053201007141541000034A0011
057201007141541050034A0002
057201007141541270050A0002
057201007141542030003A0002
015201007141542160017A0002
051201007141542410090A0011
051201007141542540300A0011
051201007141543060102A0011
051201007141546120229A0011
062201007141546580300A0011
062201007141547470300A0011
057201007141547540021A0002
062201007141548000016A0011
062201007141548100016A0011
062201007141548190016A0011
057201007141548250275A0002
053201007141548290275A0011
062201007141548290300A0011
057201007141548540275A0002
011201007141549230275A0011
012201007141550390275A0011
011201007141550400011A0011
057201007141551230022A0002
011201007141552120017A0011
035201007141552280277B0006
032201007141552430277A0011
036201007141553410277A0002
012201007141555200275A0011
025201007141555410298A0002
053201007141555450021A0011
052201007141555560006A0011
062201007141555570090A0011
053201007141556240034A0011
057201007141556300034A0002
062201007141558500229A0011
051201007141559310342A0011
062201007141559360299A0011
054201007141559440342A0011
053201007141600050034A0011
057201007141600090034A0002
057201007141600240310A0002
06020100714160224XXXXC0007
051201007141602360299A0011
06020100714160246XXXXC0007
052201007141603250198A0011
057201007141604130297A0002
021201007141605430298A0011
021201007141608390022A0011
015201007141608430010A0002
053201007141609050034A0011
057201007141609090034A0002
062201007141609490342A0011
057201007141610020104A0002
011201007141610260010A0011
052201007141612100009A0001
051201007141612360018A0011
025201007141612370046A0002
053201007141613060104A0011
025201007141613270018A0002
061201007141613320016A0011
057201007141613340104A0002
061201007141613410016A0011
061201007141613520016A0011
061201007141614100016A0011
011201007141614240018A0011
061201007141614250016A0011
015201007141615160018A0002
012201007141615210275A0011
061201007141615220016A0011
015201007141616000017A0002
061201007141616150198A0011
061201007141616350016A0011
061201007141616490016A0011
035201007141616510078A0002
015201007141617170275A0002
011201007141617250275A0011
061201007141617480016A0011
057201007141617540091B0006
053201007141618010034A0011
057201007141618040034A0002
061201007141618100016A0011
057201007141618240223A0002
054201007141619010016A0011
036201007141619210030A0002
025201007141619370091B0006
053201007141619580091A0011
012201007141620090275A0011
057201007141620340032A0002
057201007141620370091A0002
053201007141620440003A0011
053201007141620460344A0011
011201007141623550017A0011
015201007141623580172A0002
012201007141625030275A0011
035201007141625430277B0006
032201007141625540277A0011
036201007141626080342A0002
053201007141626170070A0011
031201007141626250030A0011
036201007141626320277A0002
061201007141627030038A0001
051201007141627040229A0011
061201007141627060006A0011
054201007141627380211A0011
015201007141627420275A0002
031201007141628030078A0011
015201007141628540011A0002
032201007141629270275A0011
062201007141629310229A0011
032201007141631340342A0011
053201007141631360034A0011
036201007141632120097B0006
032201007141632160097A0011
036201007141632200097A0002
051201007141632350211A0011
057201007141632550034A0002
015201007141633010016A0002
032201007141633120277A0011
011201007141633180016A0011
036201007141633270277A0002
036201007141634080275A0002
015201007141634130300A0002
015201007141634180016A0002
031201007141634210275A0011
035201007141634310006A0002
032201007141634430006A0011
06020100714163452XXXXC0007
035201007141635000275A0002
053201007141635000310A0011
051201007141635150030A0011
054201007141635160006A0011
015201007141635280203A0002
015201007141635560006A0002
011201007141637360018A0011
061201007141638210009A0001
015201007141638320018A0002
057201007141638390148A0002
057201007141638410336A0002
057201007141639360062A0002
057201007141639380074A0002
057201007141639430340A0002
015201007141640120011A0002
035201007141640560011A0002
015201007141641180195A0002
035201007141641280198A0002
032201007141642060195A0011
036201007141642340195A0002
057201007141642480005A0002
053201007141642550005A0011
021201007141643290104A0011
051201007141643430018A0001
031201007141643450206A0011
057201007141643580070A0002
011201007141645170011A0011
062201007141645290030A0011
035201007141645430027A0002
062201007141646330018A0001
035201007141647360016B0006
025201007141647420005A0002
015201007141648150001A0002
015201007141648370058A0002
035201007141648400277B0006
015201007141648530010A0002
032201007141648560277A0011
011201007141649020016A0011
035201007141649220275B0006
036201007141649350277A0002
011201007141651000300A0011
011201007141651030275A0011
015201007141651130016A0002
011201007141651480172A0011
035201007141652200078A0002
012201007141652310275A0011
036201007141652540093A0002
06020100714165322XXXXC0007
035201007141653260277B0006
051201007141653500025A0011
035201007141654150277B0006
011201007141654300195A0011
062201007141655370025A0011
031201007141658590027A0011
053201007141659470034A0011
057201007141700170034A0002
021201007141701160070A0011
011201007141701230203A0011
025201007141701300111B0006
053201007141701400111A0011
035201007141702020277B0006
012201007141702250275A0011
015201007141704580017A0002
035201007141705090009B0006
035201007141705120163A0002
054201007141707110026A0011
057201007141707520083A0002
053201007141711210150A0011
053201007141711320297A0011
057201007141712140111A0002
021201007141712250111A0011
052201007141713300027A0011
032201007141713520277A0011
057201007141715520310A0002
057201007141716510035A0002
06020100714171653XXXXC0007
051201007141717090018A0001
057201007141717460027A0002
015201007141718120172A0002
057201007141718520014A0002
061201007141721250027A0001
053201007141722080032A0011
053201007141722120091A0011
051201007141723530192A0011
011201007141724480172A0011
011201007141726420017A0011
011201007141727450058A0011
011201007141727480010A0011
015201007141727520001B0006
011201007141727540001A0011
036201007141731570030A0002
015201007141732100172A0002
036201007141733040025A0002
053201007141733260034A0011
051201007141734140026A0011
057201007141735090297A0002
057201007141735360034A0002
015201007141736300001A0002
053201007141738300083A0011
015201007141738310300A0002
053201007141738340045A0011
053201007141738530034A0011
057201007141738590034A0002
057201007141739170333A0002
057201007141740480045A0002
012201007141742220275A0011
025201007141742250104A0002
025201007141744270071A0002
061201007141745200150A0011
052201007141745280027A0001
057201007141745570021A0002
057201007141745580345B0006
015201007141746080275A0002
011201007141746580275A0011
053201007141747460310A0011
053201007141748120034A0011
057201007141748170034A0002
057201007141748200034B0006
015201007141748210010A0002
015201007141749110058A0002
011201007141749540010A0011
025201007141751050111A0002
062201007141752040299A0011
057201007141756060083A0002
015201007141756110275A0002
021201007141756560275A0011
053201007141800320021A0011
025201007141800520275A0002
011201007141801380275A0011
035201007141804380081A0002
025201007141804490084A0002
015201007141805060267A0002
057201007141806360003A0002
035201007141808130277A0002
061201007141808540027A0001
057201007141809190310A0002
025201007141810040298A0002
011201007141810210267A0011
035201007141813220007A0002
051201007141813250267A0011
057201007141814140022A0002
025201007141814210267A0002
054201007141818210034A0001
051201007141819030034A0001
053201007141819330034A0011
015201007141819550011A0002
057201007141820240034A0002
015201007141821250203A0002
035201007141826310277B0006
031201007141829410277A0011
035201007141829460277A0002
025201007141835320337A0002
021201007141835440046A0011
025201007141839280042A0002
025201007141840260339A0002
057201007141844410021A0002
025201007141850470211A0002
053201007141851010211A0011
057201007141851500211A0002
035201007141855410051A0002
035201007141855450090A0002
025201007141857130026A0002
025201007141858210024A0002
031201007141900510105A0011
053201007141901330040A0011
053201007141901460034A0011
057201007141902350034A0002
06020100714190520XXXXC0007
052201007141905350027A0001
035201007141905490059A0002
051201007141906350195A0011
025201007141906350018B0006
053201007141906430018A0011
057201007141906590018A0002
061201007141907280027A0001
035201007141908460027B0006
035201007141908490027B0006
031201007141908530027A0011
035201007141908550027A0002
054201007141911360195A0011
035201007141915400043A0002
051201007141915510034A0001
053201007141917270340A0011
031201007141917290006A0011
053201007141917300074A0011
031201007141917310038A0011
053201007141917350062A0011
057201007141921590070A0002
035201007141923270038A0002
012201007141925360275A0011
025201007141925500018B0006
011201007141927040018A0011
015201007141927230018A0002
053201007141928150018A0011
057201007141928570018A0002
011201007141929520018A0011
015201007141931240076A0002
025201007141932480210A0002
025201007141932520346A0002
021201007141932590346A0011
025201007141933020346A0002
021201007141933420034A0011
011201007141933490076A0011
015201007141934180275A0002
011201007141935000275A0011
012201007141935260275A0011
057201007141936460080A0002
025201007141938270034A0002
025201007141939460034B0006
053201007141939580034A0011
015201007141940060018A0002
057201007141940440034A0002
025201007141941380046A0002
057201007141944200040A0002
057201007141944230340A0002
057201007141944280062A0002
035201007141945580006A0002
035201007141948070206A0002
035201007141949530331A0002
035201007141949580331B0006
031201007141950020331A0011
062201007141950040018A0001
035201007141950050331A0002
035201007141950170331B0006
06020100714195109XXXXC0007
051201007141951240018A0001
032201007141952550277A0011
012201007141956290275A0011
061201007142001350091A0011
052201007142005110091A0011
012201007142005530275A0011
057201007142006520091A0002
015201007142007540275A0002
025201007142018380102A0002
053201007142022170034A0011
057201007142026120074A0002
057201007142026160064A0002
057201007142028040034A0002
015201007142030040010A0002
025201007142035410018B0006
021201007142035490018A0011
025201007142035510018A0002
057201007142044550344A0002
057201007142044590032A0002
053201007142049360340A0011
053201007142049460040A0011
021201007142052150070A0011
025201007142053190034B0006
032201007142054000034A0011
036201007142057070034A0002
011201007142058140034A0011
012201007142058480034A0011
015201007142059450034A0002
025201007142101170062B0006
021201007142101380034A0011
025201007142101460034A0002
025201007142102020312A0002
015201007142102160033A0002
021201007142104310062A0011
053201007142108270034A0011
057201007142109560034A0002
035201007142114060105A0002
025201007142115550340A0002
035201007142124430277A0002
032201007142125010277A0011
036201007142126010277A0002
031201007142129380277A0011
057201007142131470062A0002
025201007142202410040A0002
051201007142212370195A0011
025201007142213320195A0002
025201007142215470034B0006
031201007142216320034A0011
035201007142219140034A0002
053201007142220190034A0011
053201007142223480150B0015
053201007142223520150B0015
025201007142224150034A0002
057201007142226330150A0002
025201007142300010070A0002
025201007142309010034B0006
011201007142309510034A0011
012201007142310160034A0011
015201007142313310034A0002
053201007142314590034A0011
021201007142321270034B0015
025201007142321290034A0002
021201007142322170034A0011
021201007142331540299B0015
025201007142332060299A0002
021201007142332080299A0011
021201007142332120045A0011
015201007142332170017A0002
015201007142332220076A0002
025201007142338460299A0002
025201007142338520045A0002
025201007142349200034A0002
021201007142349270034A0011
054201007142350050034A0011
05120100714235212XXXXC0007
051201007142352440034A0011
