054201205250000040034A0011
051201205250003410034A0011
062201205250004250034A0011
036201205250014460034A0002
032201205250015130034A0011
06020120525001536XXXXC0007
051201205250015560034A0011
057201205250017400034A0002
021201205250024550034A0011
025201205250031580034A0002
057201205250047530035A0002
057201205250047580297A0002
021201205250048490034A0011
025201205250102300034A0002
053201205250103330034A0011
057201205250104230034A0002
025201205250123270034B0006
057201205250127050080A0002
053201205250128020034A0011
057201205250224050034A0002
053201205250318230034A0011
057201205250319410034A0002
053201205250521180034A0011
025201205250542000034A0002
021201205250630370111A0011
025201205250630530111A0002
021201205250630560111A0011
025201205250642350034B0006
053201205250642480034A0011
011201205250644010033A0011
057201205250649480034A0002
021201205250650050018A0011
021201205250650260034A0011
057201205250652560034A0002
021201205250654560034A0011
031201205250658440066A0011
021201205250700450034B0015
025201205250700530034A0002
011201205250702340015A0011
025201205250702520034B0006
053201205250703310034A0011
057201205250704420034A0002
021201205250704520034A0011
054201205250705260034A0011
015201205250706340034A0002
015201205250706590015A0002
031201205250708220027A0011
032201205250708320034A0011
021201205250708390015A0011
031201205250709150025A0011
035201205250709210025A0002
031201205250709240025A0011
025201205250709400015A0002
053201205250710040015A0011
057201205250710100015A0002
011201205250710510015A0011
06020120525071110XXXXC0007
051201205250711270034A0011
035201205250711470025A0002
032201205250712270252A0011
057201205250713360034A0002
025201205250716170018A0002
021201205250716520018A0011
053201205250717070034A0011
054201205250717230018A0011
035201205250717500027A0002
057201205250718180034A0002
021201205250718280034A0011
011201205250719020027A0011
061201205250725540006A0001
057201205250726200034A0002
035201205250726220006B0006
031201205250726260006A0011
021201205250730190034A0011
031201205250730300105A0011
031201205250732070006B0015
021201205250734490192A0011
062201205250735380192A0011
035201205250735500006A0002
031201205250738090006A0011
011201205250741110203A0011
051201205250741500018A0011
062201205250742140027A0011
06020120525074317XXXXC0007
054201205250743360027A0011
05120120525074418XXXXC0007
062201205250744360034A0011
015201205250744550027A0002
051201205250745050034A0011
035201205250745110066A0002
035201205250746160105A0002
054201205250746400111A0011
021201205250747550014A0011
051201205250748250111A0011
011201205250750260027A0011
011201205250750520172A0011
035201205250751100006A0002
036201205250751560192A0002
032201205250753040192A0011
053201205250754090034B0015
025201205250754220034A0002
053201205250754320034A0011
015201205250754500172A0002
025201205250755060034A0002
053201205250756240034A0011
062201205250756460027A0011
021201205250758200102A0011
031201205250758460038A0011
057201205250800130018A0002
053201205250800550018A0011
011201205250801210001A0011
057201205250804330034A0002
035201205250804350038A0002
031201205250805250006A0011
031201205250806170025A0011
011201205250807290172A0011
035201205250807290006A0002
031201205250807380078A0011
035201205250807540027A0002
032201205250808110027A0011
031201205250808200006A0011
06020120525080834XXXXC0007
052201205250808500006A0011
021201205250809220006B0015
021201205250809260006B0015
025201205250809290006A0002
021201205250809360006A0011
053201205250809440034A0011
021201205250809550034B0015
025201205250810000034A0002
053201205250810160333A0011
035201205250813050027A0002
06020120525081518XXXXC0007
051201205250815370252A0011
031201205250817030027A0011
025201205250817400006A0002
021201205250818490006A0011
011201205250819010017A0011
021201205250819020046A0011
05120120525081903XXXXC0007
061201205250819180006A0011
035201205250819340006A0002
032201205250819490006A0011
031201205250820110044B0015
036201205250820160006A0002
031201205250820220006A0011
035201205250820250044A0002
031201205250820280044A0011
035201205250820330006A0002
05120120525082100XXXXC0007
054201205250821100316A0001
031201205250821180188A0011
011201205250821320088A0011
031201205250821490206A0011
015201205250821550088A0002
051201205250822230027A0011
031201205250822320006A0011
011201205250823190088A0011
015201205250823330088A0002
011201205250823570088A0011
025201205250824200027A0002
035201205250824340006A0002
031201205250826490027A0011
011201205250826540010A0011
053201205250827290149A0011
031201205250827350038A0011
036201205250828430006B0006
021201205250829330051A0011
062201205250832240252A0011
035201205250832310027A0002
031201205250833140006A0011
035201205250833190006A0002
021201205250833570084A0011
036201205250835150027B0006
031201205250835340027A0011
021201205250835530148A0011
031201205250837230059A0011
036201205250840460252A0002
015201205250840560015A0002
011201205250841250015A0011
011201205250842170330A0011
015201205250843220015A0002
011201205250843440015A0011
051201205250844160188A0011
015201205250845260015A0002
062201205250846030188A0011
031201205250846220188B0015
031201205250846260188B0015
031201205250846300188B0015
031201205250846330006A0011
035201205250846390006A0002
021201205250846550077A0011
025201205250851140046A0002
031201205250851350079A0011
035201205250851580006B0006
021201205250852120034A0011
025201205250852550034A0002
011201205250853320023A0011
035201205250854170206A0002
021201205250855380267A0011
054201205250855560267A0011
036201205250856550188A0002
015201205250857180267A0002
036201205250857410188B0006
061201205250857540077A0011
015201205250858150316B0006
031201205250858550267A0011
053201205250859040034A0011
035201205250859140267A0002
032201205250859250267A0011
054201205250859480267A0011
053201205250902390297A0011
021201205250902540048A0011
025201205250903190102A0002
054201205250903190048A0011
012201205250904350048A0011
011201205250904460015A0011
021201205250904580034B0015
032201205250905220061A0011
015201205250905340048A0002
054201205250905510018A0011
031201205250906050008A0011
011201205250906210048A0011
025201205250906320034A0002
036201205250906400027A0002
015201205250906570172A0002
053201205250907200035A0011
015201205250907290015A0002
015201205250907520203A0002
031201205250908410015A0011
036201205250910080006B0006
062201205250910150149A0011
031201205250911060006A0011
035201205250911230015A0002
011201205250912540316A0011
012201205250913480048A0011
011201205250914100015A0011
021201205250914120046A0011
021201205250914190028A0011
015201205250914270048A0002
054201205250914450028A0011
06020120525091453XXXXC0007
051201205250914540149A0011
035201205250915080006A0002
051201205250915150077A0011
031201205250915200048A0011
032201205250915240006A0011
035201205250915480048A0002
036201205250916430006A0002
062201205250916530267A0011
036201205250917040267A0002
031201205250917150267A0011
015201205250917270015A0002
035201205250917460267A0002
032201205250917580267A0011
031201205250918070015A0011
054201205250918250267A0011
036201205250918360044A0002
021201205250918390021A0011
051201205250918450018A0011
057201205250919010035A0002
057201205250919050297A0002
036201205250919440059A0002
011201205250919510048A0011
036201205250922010006B0006
011201205250922140197A0011
021201205250922290336B0015
035201205250922560015A0002
031201205250923190082A0011
032201205250923200252A0011
031201205250925050163A0011
011201205250925180015A0011
021201205250931190102A0011
035201205250933140025A0002
053201205250933560003A0011
053201205250935490034A0011
057201205250935550034A0002
015201205250936110015A0002
031201205250936500052A0011
021201205250937090039A0011
015201205250937170316A0002
031201205250937170015A0011
06020120525093726XXXXC0007
031201205250937530316A0011
054201205250938000192A0011
053201205250938300032A0011
021201205250940190094A0011
036201205250940440015A0002
011201205250944290172A0011
025201205250944350077A0002
053201205250944450077A0011
021201205250946070176A0011
031201205250946220081A0011
062201205250947120192A0011
021201205250947550089A0011
032201205250948160057A0011
031201205250948280006A0011
035201205250948330006A0002
031201205250949480025A0011
021201205250949550071A0011
053201205250950120034A0011
06020120525095114XXXXC0007
054201205250951400316A0011
025201205250952350034A0002
021201205250954220098A0011
035201205250954430079A0002
015201205250955460316A0002
031201205250958170015A0011
035201205250958540015A0002
032201205250958550006A0011
036201205250958590006A0002
031201205250959110079A0011
031201205251001230053A0011
032201205251001230006A0011
053201205251001240034A0011
036201205251001300006A0002
057201205251001300034A0002
053201205251002020328A0011
036201205251006570192A0002
031201205251007160229A0011
011201205251008290018B0015
054201205251008350102A0011
025201205251009270328A0002
021201205251009530041A0011
015201205251011180018A0002
012201205251011390048A0011
011201205251013220203A0011
057201205251013280034B0006
053201205251014550101A0011
051201205251020540102A0011
032201205251021180006A0011
051201205251021410006A0011
025201205251021560006A0002
021201205251022310006A0011
021201205251023140006B0015
061201205251023440006A0011
062201205251023460018A0001
035201205251023580006A0002
035201205251024400018B0006
031201205251024490006A0011
035201205251024530006A0002
032201205251025050018A0011
036201205251025420018A0002
015201205251027150048A0002
031201205251028540048A0011
06020120525102906XXXXC0007
054201205251029330025A0011
036201205251030250048A0002
053201205251030310310A0011
051201205251031590025A0011
062201205251033190025A0011
032201205251034230192A0011
031201205251034380006A0011
035201205251034560006A0002
032201205251035150006A0011
031201205251035340206A0011
057201205251036430032A0002
057201205251037000310A0002
011201205251038540148A0011
021201205251039050345A0011
032201205251039350027A0011
061201205251039460003A0011
052201205251040260003A0011
057201205251040400018B0006
053201205251040480018A0011
057201205251040490018A0002
057201205251040520018B0006
036201205251042160025A0002
036201205251042180027A0002
031201205251042260025A0011
035201205251043050052A0002
031201205251044140027A0011
035201205251045150006A0002
051201205251045320148A0011
053201205251046440029A0011
054201205251046590027A0011
051201205251047170084A0011
021201205251050540009A0011
031201205251052180052A0011
015201205251052520027A0002
062201205251053000111A0011
053201205251054560328A0011
011201205251056430018A0011
015201205251057090018A0002
06020120525105856XXXXC0007
051201205251059110111A0011
031201205251101160108A0011
05120120525110150XXXXC0007
062201205251101590041A0011
021201205251104020056A0011
051201205251104460330A0011
061201205251105580333A0011
054201205251105590330A0011
053201205251107360034A0011
057201205251107430034A0002
054201205251108450048A0001
051201205251108540041A0011
012201205251108570048A0001
062201205251110410048A0001
061201205251112230003A0011
036201205251113000048B0006
011201205251113200027A0011
062201205251114170027A0011
015201205251117580017A0002
035201205251118390027A0002
052201205251118440003A0011
031201205251118460027A0011
011201205251120230017A0011
031201205251121410006A0011
035201205251122160006A0002
011201205251123020316A0011
035201205251123290025A0002
053201205251123540032A0011
053201205251123580310A0011
035201205251124370027A0002
031201205251125280006A0011
052201205251125370008A0011
011201205251125410048A0011
011201205251125440025A0011
015201205251126090088A0002
012201205251126100048A0011
015201205251127190048A0002
015201205251127220025A0002
025201205251127490084A0002
011201205251128540088A0011
032201205251129010025A0011
032201205251129020048A0011
031201205251129170027A0011
035201205251131520025A0002
031201205251132330025A0011
035201205251137040048A0002
025201205251138040034B0006
053201205251138170034A0011
035201205251138460025A0002
032201205251139000025A0011
031201205251140280006B0015
061201205251140450046A0011
015201205251141230028A0002
053201205251142180103A0011
053201205251142190103B0015
031201205251142440028A0011
015201205251143180316A0002
011201205251143300316A0011
015201205251144070316A0002
052201205251145040333A0011
053201205251145240018A0011
036201205251145330048B0006
054201205251146050025A0011
015201205251146170001A0002
015201205251146200172A0002
035201205251147510028A0002
011201205251148170028A0011
011201205251148200048A0011
011201205251148240018B0015
052201205251148500046A0011
015201205251148530018A0002
062201205251150150025A0011
025201205251152140077A0002
051201205251153220006A0011
025201205251153420006A0002
025201205251154050046A0002
011201205251157120001A0011
011201205251157140172A0011
061201205251157390006A0001
053201205251157510018A0011
057201205251157560018A0002
035201205251157560006B0006
036201205251200300057A0002
015201205251200370088A0002
015201205251200390267A0002
035201205251202050053A0002
031201205251203050027B0015
035201205251203180027A0002
031201205251203230027A0011
035201205251204120027A0002
057201205251204420333A0002
057201205251204450101A0002
057201205251204490003A0002
025201205251205130336A0002
032201205251206370188A0011
032201205251206420006A0011
051201205251207010006A0011
053201205251208480034B0015
05120120525120859XXXXC0007
025201205251209000034A0002
053201205251209110034A0011
057201205251209160034A0002
062201205251209200006A0011
036201205251209310006A0002
031201205251210230192B0015
031201205251210280192B0015
035201205251211110006B0006
031201205251211290006A0011
035201205251211330006A0002
035201205251211510079A0002
021201205251212460333A0011
032201205251213170192B0015
032201205251213290192B0015
035201205251217430108A0002
032201205251218180057A0011
031201205251218270053A0011
053201205251220100003A0011
053201205251220120101A0011
031201205251227230027A0011
035201205251228200027A0002
06020120525122847XXXXC0007
054201205251229030027A0001
062201205251230340027A0001
031201205251231010027A0011
036201205251232000027A0002
035201205251232030052A0002
035201205251232060038A0002
057201205251232120310A0002
031201205251232430108A0011
057201205251232520032A0002
036201205251233150027B0006
031201205251234390006A0011
035201205251234440006A0002
011201205251239530267A0011
011201205251239590088A0011
031201205251240310006A0011
035201205251240360006A0002
015201205251240500048A0002
015201205251241330267A0002
011201205251241450048A0011
015201205251243020088A0002
031201205251243170006A0011
035201205251243230006A0002
035201205251244410006B0006
015201205251247320001A0002
011201205251248440001A0011
011201205251249320267A0011
011201205251249340088A0011
053201205251254200077A0011
025201205251254450034B0006
057201205251255180034B0006
021201205251255350034A0011
057201205251256540034A0002
015201205251257100203A0002
021201205251257140034A0011
032201205251257390006A0011
036201205251259200006A0002
031201205251301100006A0011
035201205251301150006A0002
011201205251304220203A0011
015201205251305040048A0002
031201205251305120079A0011
053201205251305400046A0011
036201205251309100006B0006
031201205251312010006A0011
035201205251312340006A0002
036201205251313290048B0006
032201205251313340048A0011
036201205251313370048A0002
053201205251314480034B0015
025201205251315040034A0002
053201205251315200034A0011
015201205251315270172A0002
057201205251316350034A0002
011201205251320540172A0011
011201205251321020027A0011
035201205251322110053A0002
062201205251322190027A0011
036201205251322260027A0002
031201205251322360027A0011
031201205251323010053A0011
035201205251323520053A0002
053201205251324340032A0011
053201205251324360310A0011
053201205251325040035A0011
053201205251325080297A0011
031201205251325270044A0011
032201205251325270061B0015
036201205251325310061A0002
032201205251325340061A0011
031201205251325340059A0011
057201205251327030103A0002
031201205251327090052A0011
031201205251327110038A0011
035201205251327400015B0006
031201205251327420015A0011
035201205251328010027A0002
011201205251329350015B0015
011201205251329380015B0015
053201205251330020080A0011
031201205251330160036A0011
021201205251332590048A0011
032201205251333030006A0011
062201205251333220267A0011
036201205251333300267A0002
031201205251333360267A0011
025201205251334180048A0002
015201205251334200015A0002
035201205251334350044A0002
035201205251334490267A0002
015201205251334590028A0002
054201205251335200267A0001
036201205251335270006A0002
011201205251335270048A0011
021201205251335380015A0011
012201205251336340048A0011
025201205251337010034B0006
053201205251337300034A0011
015201205251338170330A0002
011201205251338500015B0015
035201205251338540059A0002
011201205251339220027A0011
053201205251340010103A0011
015201205251340110048A0002
025201205251340170034A0002
031201205251340300053A0011
011201205251341260028A0011
021201205251341350048A0011
054201205251343100048A0011
021201205251346260084A0011
015201205251346530267B0006
015201205251346560015A0002
011201205251348370330A0011
015201205251351270033A0002
053201205251351560034A0011
057201205251352020034A0002
035201205251352290038A0002
035201205251352340052A0002
025201205251353300034B0006
035201205251354080053A0002
035201205251355460006B0006
032201205251356140006A0011
011201205251358060316A0011
031201205251358230052A0011
031201205251358490053A0011
031201205251359010006B0015
035201205251359060006A0002
035201205251359120052A0002
054201205251401000018A0001
057201205251401500035A0002
057201205251402130103A0002
057201205251402280310A0002
057201205251402390094A0002
051201205251402440018A0001
021201205251402500094A0011
015201205251403020017A0002
05120120525140309XXXXC0007
035201205251403210078A0002
054201205251403250297A0011
051201205251404010297A0011
015201205251404420010A0002
011201205251405460033A0011
031201205251406040059A0011
031201205251406130006A0011
035201205251406180006A0002
011201205251406210010A0011
015201205251406390010A0002
011201205251406440010A0011
052201205251408190059A0011
036201205251409290192A0002
054201205251409480082A0011
052201205251410120163A0011
011201205251410260017A0011
054201205251411130163A0011
057201205251411290029A0002
05120120525141237XXXXC0007
054201205251412530297A0011
061201205251412560003A0011
015201205251414100316A0002
062201205251414390027A0011
031201205251415170027B0015
054201205251415300009A0011
062201205251415340111A0011
021201205251418290034A0011
057201205251419050018B0006
051201205251419200111A0011
021201205251419380018A0011
025201205251419420018A0002
015201205251419450001A0002
011201205251419550001A0011
053201205251420070018A0011
015201205251420140001A0002
052201205251420160003A0011
011201205251420550001A0011
052201205251421350018A0011
051201205251421360006A0001
061201205251421370101A0011
015201205251421440088A0002
025201205251422090006B0006
021201205251422220034B0015
021201205251422270034B0015
025201205251422340034A0002
062201205251423430006A0001
036201205251423530006B0006
031201205251424100006A0011
035201205251425050006A0002
031201205251425280006A0011
015201205251426060172A0002
011201205251427200172A0011
032201205251427290192A0011
061201205251429070059A0011
036201205251430130006A0002
06020120525143049XXXXC0007
015201205251432140048A0002
032201205251432320027B0015
054201205251432380046A0011
031201205251432460027B0015
011201205251433280048A0011
052201205251433510053A0011
054201205251435160033A0011
05120120525143542XXXXC0007
051201205251436500009A0011
051201205251437040082A0011
054201205251437080009A0011
062201205251437230082A0011
052201205251437260018A0011
06020120525143922XXXXC0007
054201205251439550082A0011
035201205251439560027A0002
032201205251440070027A0011
06020120525144016XXXXC0007
06020120525144039XXXXC0007
052201205251441010229A0011
036201205251441400027A0002
031201205251441550027A0011
052201205251441590229A0011
05120120525144232XXXXC0007
032201205251442370006A0011
036201205251443120006A0002
053201205251443380034A0011
035201205251444480006B0006
032201205251444590006A0011
036201205251447180006A0002
057201205251450530034A0002
057201205251452150034B0006
032201205251454490006A0011
051201205251455420101A0011
021201205251457130034A0011
036201205251457550006A0002
025201205251500580034A0002
032201205251501310006A0011
036201205251503490006A0002
061201205251505470333A0011
011201205251507490033B0015
053201205251507490034A0011
031201205251508040025B0015
057201205251508070034A0002
035201205251508070025A0002
011201205251508080267A0011
035201205251510010027A0002
031201205251510060027A0011
031201205251513430044A0011
035201205251517050044A0002
011201205251517110001B0015
011201205251517150023B0015
031201205251517240044A0011
053201205251518440310A0011
011201205251523170048B0015
011201205251523190048B0015
011201205251523400172B0015
053201205251523500029A0011
021201205251524050046B0015
011201205251524540203B0015
061201205251525340229A0011
054201205251525500018A0011
015201205251526310088B0006
015201205251526370088B0006
031201205251526400006A0011
032201205251526430053B0015
035201205251527070006A0002
011201205251527190088A0011
015201205251527260088A0002
015201205251528130018A0002
061201205251528190032A0011
035201205251529060229A0002
011201205251529320088A0011
062201205251531270048A0011
035201205251532020027A0002
036201205251532060006B0006
031201205251532120108B0015
031201205251532200108B0015
031201205251532230229A0011
035201205251532300108A0002
035201205251532330229A0002
031201205251532390108A0011
06020120525153251XXXXC0007
051201205251533100188A0011
031201205251533210027A0011
036201205251533350192A0002
036201205251533370048A0002
025201205251535270084A0002
021201205251535310084A0011
025201205251535360188A0002
031201205251540270006A0011
035201205251540320006A0002
053201205251542110003B0015
035201205251542460006B0006
057201205251544080034B0006
031201205251545030229A0011
035201205251547060027A0002
011201205251548230048A0011
015201205251550120330A0002
032201205251550280006A0011
032201205251551210192A0011
011201205251553150330A0011
015201205251553300048A0002
062201205251554400023A0011
036201205251554550192A0002
011201205251554560017B0015
011201205251555000028B0015
015201205251555130017A0002
015201205251555170028A0002
011201205251555220028A0011
011201205251555310017A0011
051201205251555470203A0011
06020120525155628XXXXC0007
052201205251556440206A0011
054201205251557040203A0011
025201205251557060084A0002
053201205251557190034A0011
053201205251557230084A0011
061201205251557380206A0011
057201205251557470034A0002
057201205251558240084A0002
015201205251558380088A0002
021201205251558420084A0011
031201205251558450006B0015
015201205251558490010A0002
051201205251558540009A0011
035201205251559090006A0002
062201205251559210082A0011
062201205251559340163A0011
053201205251559570034A0011
032201205251600000192A0011
011201205251600220088A0011
032201205251601430078A0011
031201205251601580006A0011
054201205251604120023A0011
031201205251604370027A0011
011201205251605030010A0011
035201205251605090027A0002
035201205251605150108A0002
011201205251605300048A0011
015201205251606050023A0002
031201205251606110108A0011
031201205251608110108B0015
031201205251608150108B0015
035201205251608170108A0002
031201205251608190108A0011
061201205251609210297A0011
053201205251610590035A0011
011201205251611010023A0011
057201205251611010103B0006
053201205251611020103A0011
031201205251611070052A0011
031201205251611140038A0011
035201205251611490038A0002
051201205251611590033A0011
035201205251612250025B0006
06020120525161237XXXXC0007
052201205251612490025A0001
021201205251613270025A0011
025201205251613340025A0002
035201205251618080108A0002
031201205251619310108A0011
021201205251620180034B0015
021201205251620220034B0015
025201205251620290034A0002
021201205251622530018A0011
062201205251623260033A0011
015201205251625250048A0002
051201205251625560032A0011
031201205251626050048A0011
057201205251626230080A0002
035201205251626260048A0002
051201205251627230048A0001
062201205251627250023A0011
025201205251627380048B0006
021201205251627440034A0011
025201205251627500034A0002
054201205251629130084A0011
011201205251630020102B0015
032201205251631170192B0015
051201205251631230102A0011
054201205251633360023A0011
051201205251634310084A0011
053201205251634580080A0011
015201205251634580088A0002
032201205251637190025A0011
011201205251637420088A0011
06020120525163751XXXXC0007
052201205251638020052A0011
011201205251638060048A0011
031201205251639200038A0011
035201205251639310038A0002
054201205251639340084A0011
061201205251642190052A0011
035201205251642190108A0002
061201205251642450035A0011
035201205251643000035A0002
062201205251643190033A0011
032201205251643300035A0011
057201205251643470333A0002
057201205251643520101A0002
052201205251643530052A0011
057201205251643540003A0002
057201205251643540032A0002
035201205251645190044A0002
015201205251645510267A0002
011201205251646520267A0011
051201205251647040084A0011
035201205251647480059A0002
061201205251648580052A0011
031201205251651100044A0011
06020120525165130XXXXC0007
062201205251651400111A0011
054201205251652110033A0011
06020120525165223XXXXC0007
051201205251652360111A0011
032201205251652540252B0015
051201205251654340297A0011
031201205251655240027A0011
035201205251655420027A0002
031201205251656200008B0015
035201205251656240008A0002
031201205251656260008A0011
015201205251656280010A0002
035201205251657090006A0002
015201205251657250035A0002
012201205251657280048A0011
053201205251657440018B0015
052201205251658230035A0001
011201205251658290010A0011
015201205251658380048A0002
036201205251659310006B0006
011201205251703270048A0011
031201205251704030053B0015
031201205251704150006A0011
021201205251704220046B0015
035201205251704220006A0002
054201205251705490053A0011
036201205251706360006B0006
062201205251706470053A0011
025201205251709320034B0006
021201205251711060034A0011
025201205251711090034A0002
031201205251711210006A0011
035201205251711560006A0002
031201205251713180006A0011
035201205251713250006A0002
057201205251713300034B0006
015201205251715550172A0002
054201205251716000084A0011
011201205251718010172A0011
025201205251718060077A0002
053201205251718150077A0011
032201205251718230027A0011
036201205251721090252A0002
051201205251723340084A0011
012201205251726230048A0011
035201205251727120052A0002
015201205251727560048A0002
036201205251728360188B0006
036201205251728390188B0006
036201205251728420188B0006
032201205251728430006A0011
036201205251728480006A0002
036201205251730120006B0006
053201205251730160003A0011
053201205251730170333A0011
053201205251730190101A0011
053201205251730560032A0011
031201205251731000059A0011
054201205251731180084A0011
015201205251731250172A0002
031201205251732300052A0011
031201205251732350018B0015
035201205251732480027A0002
035201205251733500018A0002
051201205251734030084A0011
011201205251735100027A0011
036201205251739010048B0006
032201205251739030048A0011
015201205251739300027A0002
011201205251741260048B0015
011201205251741300048B0015
032201205251742380188A0011
015201205251745250203A0002
011201205251745500203A0011
035201205251746040081A0002
015201205251746390203A0002
015201205251747100088A0002
015201205251747140267A0002
021201205251747360077B0015
025201205251747410077A0002
021201205251747440077A0011
035201205251747530059A0002
025201205251748250071A0002
035201205251750130044A0002
035201205251750150036A0002
015201205251751170001A0002
015201205251753410023A0002
031201205251755160105A0011
035201205251757020105A0002
062201205251758490111A0011
051201205251759430111A0011
031201205251800300036A0011
031201205251800320044A0011
057201205251802120003A0002
031201205251802130108A0011
036201205251803320025A0002
025201205251806200084A0002
054201205251808330084A0001
052201205251808590082A0011
057201205251809240018B0006
031201205251809290006A0011
051201205251809310084A0001
015201205251810000048A0002
035201205251810010053A0002
035201205251810250006A0002
031201205251810420048A0011
035201205251811030044A0002
054201205251813090048A0011
036201205251813520192A0002
015201205251818380197A0002
032201205251820290192A0011
036201205251821050188A0002
036201205251822440192A0002
032201205251823460006A0011
025201205251824180103A0002
025201205251825080336B0006
031201205251825100027A0011
025201205251825320084B0006
035201205251825420006A0002
032201205251826520192A0011
015201205251827040330A0002
035201205251828270027A0002
032201205251828380027A0011
054201205251829100027A0011
057201205251834410080A0002
011201205251835460330A0011
036201205251837470018B0006
035201205251838580036A0002
051201205251840300192A0011
025201205251840480192A0002
062201205251840490027A0011
051201205251841010048A0011
057201205251841290034B0006
054201205251842430048A0011
012201205251843540048A0011
036201205251844220006B0006
025201205251844280034B0006
053201205251844360034A0011
031201205251845080006A0011
057201205251845150034A0002
035201205251845590006A0002
051201205251846540048A0011
062201205251847030027A0011
035201205251848100052A0002
05120120525184906XXXXC0007
054201205251849210034A0001
051201205251850060034A0001
054201205251850340048A0011
035201205251853290008A0002
036201205251853290061A0002
057201205251853560333A0002
057201205251856060035B0006
053201205251856130035A0011
057201205251856150035A0002
032201205251857500006A0011
036201205251858210006A0002
031201205251858330006A0011
025201205251858420148A0002
053201205251900540080A0011
035201205251900580006A0002
032201205251901170006A0011
025201205251901230111A0002
025201205251901590046A0002
025201205251902020077A0002
032201205251902220006B0015
036201205251902360006A0002
035201205251905190027A0002
025201205251906100039A0002
032201205251906520006A0011
036201205251906580006A0002
015201205251907510048A0002
032201205251908530048A0011
035201205251909520206A0002
025201205251909590176A0002
025201205251910040176B0006
021201205251910070176A0011
025201205251910100176A0002
036201205251911250048A0002
021201205251912340046A0011
021201205251912350077A0011
061201205251912400082A0011
011201205251913080048A0011
012201205251913310048A0011
057201205251914140297A0002
053201205251914250297A0011
053201205251914280035A0011
035201205251917230006B0006
057201205251918350297A0002
052201205251919300082A0011
031201205251921370027A0011
035201205251921420163A0002
057201205251922240101A0002
015201205251923300028A0002
057201205251924580345A0002
011201205251925160028A0011
015201205251927360010A0002
031201205251927410163A0011
035201205251927440163A0002
015201205251930170017A0002
036201205251930170057A0002
012201205251932410048A0011
025201205251932560041A0002
025201205251932590056A0002
025201205251933040021A0002
036201205251942150078A0002
036201205251947300006B0006
053201205251947560328B0015
025201205251948090328A0002
021201205251948140328A0011
021201205251948230328B0015
025201205251948260328A0002
021201205251948290328A0011
025201205251948390077A0002
025201205251957460018B0006
053201205251957550018A0011
053201205252000040034A0011
025201205252000560034A0002
057201205252001250018A0002
06020120525200207XXXXC0007
052201205252002210229A0011
057201205252004040328A0002
035201205252004110006B0006
031201205252004150006A0011
035201205252004170006A0002
051201205252005280033A0011
015201205252005420048A0002
062201205252005480033A0011
021201205252007440018A0011
06020120525200852XXXXC0007
054201205252009220033A0011
015201205252009510028A0002
015201205252009540330A0002
062201205252013550034A0001
035201205252014180027A0002
025201205252018510029A0002
021201205252021140050A0011
06020120525202236XXXXC0007
032201205252022400027A0011
051201205252022500006A0001
036201205252024420034B0006
011201205252025540034A0011
025201205252025570046A0002
062201205252027040034A0011
021201205252028350018B0015
025201205252028440018A0002
035201205252032040038B0006
031201205252032150038A0011
035201205252032210038A0002
035201205252035500108A0002
057201205252036300032A0002
057201205252036370310A0002
06020120525203704XXXXC0007
054201205252037230027A0011
054201205252037240027A0011
015201205252038020027A0002
036201205252040030034A0002
031201205252040150034A0011
035201205252041360034A0002
061201205252042500229A0011
011201205252042590027A0011
051201205252043490027A0011
035201205252044060229A0002
062201205252044170027A0011
032201205252045210027B0015
057201205252049290006B0006
053201205252049350006A0011
025201205252051080050A0002
062201205252051400006A0011
036201205252051530006A0002
031201205252052140006A0011
025201205252103540051A0002
025201205252103560098A0002
031201205252106410163A0011
025201205252109520009A0002
051201205252115480027A0011
025201205252116020027A0002
053201205252116220027A0011
025201205252116480102A0002
057201205252117030027A0002
021201205252117130027A0011
05120120525211723XXXXC0007
061201205252117330027A0011
025201205252117510089A0002
051201205252120420027A0011
05120120525212120XXXXC0007
062201205252121390027A0011
021201205252123190089A0011
021201205252123240089B0015
021201205252123300089B0015
032201205252136050034A0011
051201205252136350034A0011
061201205252137450034A0011
025201205252141540094A0002
035201205252146580163A0002
025201205252153560080A0002
015201205252154400033A0002
035201205252208470027A0002
036201205252208540034A0002
032201205252209180034A0011
031201205252212500027A0011
057201205252219300082A0002
035201205252228140034A0002
032201205252228330034A0011
061201205252241360082A0001
036201205252243150034A0002
053201205252245320034A0011
05120120525224549XXXXC0007
054201205252246070034A0011
051201205252248170034A0011
021201205252251300009A0011
025201205252254090009A0002
025201205252255110034A0002
021201205252255360034A0011
051201205252256270027A0011
035201205252302300082B0006
031201205252302380082A0011
025201205252315080034A0002
021201205252316240034A0011
05120120525232955XXXXC0007
054201205252330120034A0011
051201205252332530034A0011
